<svg width="478" height="135" viewBox="0 0 478 135" fill="none" xmlns="http://www.w3.org/2000/svg">
<g clip-path="url(#clip0)">
<path fill-rule="evenodd" clip-rule="evenodd" d="M109.533 13.8691H118.548V22.9134L127.548 22.8987V31.9429L118.548 31.9577V41.0019L109.533 41.0167V31.9724H100.532V22.9282H109.533V13.8691Z" fill="#95C361"/>
<path fill-rule="evenodd" clip-rule="evenodd" d="M114.445 0.0292969C119.875 0.0292977 125.183 1.64446 129.698 4.67059C134.213 7.69672 137.732 11.9979 139.81 17.0304C141.889 22.0629 142.433 27.6007 141.375 32.9437C140.317 38.2867 137.703 43.1949 133.865 47.0479C130.027 50.9008 125.136 53.5255 119.811 54.59C114.485 55.6545 108.965 55.1111 103.948 53.0285C98.9307 50.9459 94.6415 47.4176 91.6227 42.8896C88.604 38.3616 86.9912 33.0374 86.9883 27.5899C86.9864 23.9713 87.6951 20.3878 89.0741 17.0441C90.453 13.7003 92.4752 10.662 95.025 8.10252C97.5748 5.54308 100.602 3.51275 103.934 2.12751C107.267 0.74228 110.838 0.0292964 114.445 0.0292969V0.0292969ZM114.445 3.23094C119.24 3.23094 123.928 4.6571 127.915 7.32916C131.902 10.0012 135.011 13.7992 136.847 18.2431C138.683 22.6871 139.165 27.5774 138.232 32.296C137.299 37.0147 134.992 41.3498 131.603 44.7536C128.215 48.1573 123.896 50.4768 119.194 51.4189C114.492 52.3609 109.617 51.8833 105.185 50.0464C100.753 48.2095 96.9638 45.0957 94.2955 41.0986C91.6273 37.1016 90.2001 32.4006 90.1943 27.5899C90.1923 24.393 90.8181 21.227 92.0357 18.2727C93.2534 15.3184 95.0392 12.6336 97.2911 10.3716C99.5429 8.10969 102.217 6.31488 105.16 5.08968C108.103 3.86447 111.258 3.23287 114.445 3.23094V3.23094ZM106.18 10.2539H122.695V19.2686H131.696V35.8375H122.695V44.867H106.18V35.8522H97.1798V19.2981H106.18V10.2539V10.2539ZM107.989 12.0686H120.886V21.1129H129.887V34.0375H120.886V43.067H107.989V34.0375H98.9887V21.1129H107.989V12.0686V12.0686Z" fill="#D14E43"/>
<path d="M170.579 8.11454L167.505 33.1965H173.152L170.726 8.11454H170.579ZM175.285 55.1063L173.932 41.5916H166.579L164.873 55.1063H154.034L162.961 0.0440513H179.653L187.859 55.1063H175.285ZM195.418 0.0440513H227.389V55.1063H214.536V8.40963H208.256V55.1063H195.418V0.0440513V0.0440513ZM256.111 55.1063H243.346V8.40963H234.36V0.0440513H265.038V8.40963H256.111V55.1063ZM299.862 55.1063H273.391V0.0292969H299.862V8.39487H286.244V20.685H299.627V28.9178H286.244V46.726H299.862V55.0916V55.1063ZM342.216 55.1063H329.657L321.892 27.2211V55.1063H309.039V0.0440513H321.892V25.126L330.01 0.0440513H342.275L333.716 24.3588L342.275 55.1063H342.216ZM364.276 8.11454L361.202 33.1965H366.835L364.423 8.11454H364.276ZM368.982 55.1063L367.629 41.5916H360.202L358.496 55.1063H347.717L356.643 0.0440513H373.335L381.615 55.1063H368.982Z" fill="#D14E43" stroke="#1D1D1B" stroke-width="0.03" stroke-miterlimit="22.93"/>
<path fill-rule="evenodd" clip-rule="evenodd" d="M63.7669 115.348C63.7669 115.864 63.6493 117.502 63.4434 120.29C63.2375 123.079 63.1052 124.717 63.0463 124.717C62.8404 125.056 62.0169 125.233 60.6051 125.233C59.6406 125.192 58.6837 125.044 57.752 124.79C56.2814 124.481 55.5461 124.141 55.5461 123.758C55.5461 123.374 55.9873 121.559 56.8844 118.048C52.5215 118.254 45.9919 118.682 37.2955 119.331L27.8835 120.231C28.2327 121.766 28.42 123.334 28.4423 124.908C28.4423 126.103 27.207 126.708 24.7216 126.708C22.2363 126.708 21.0156 126.458 21.0156 125.941C21.0156 125.174 21.0892 124.008 21.2509 122.444C21.4127 120.881 21.4862 119.715 21.4862 118.948C21.5038 118.756 21.5038 118.564 21.4862 118.372C21.3202 118.168 21.198 117.932 21.1271 117.678C21.0563 117.424 21.0383 117.158 21.0745 116.897C21.0745 115.053 22.751 114.138 26.1187 114.138C28.8541 102.876 31.1679 94.274 33.0601 88.333C33.5895 86.6658 34.3396 84.1723 35.3543 80.8232C36.9279 74.9215 38.222 71.9707 39.2074 71.9707C39.7656 71.9886 40.3215 72.0527 40.8692 72.1625C43.7533 72.7843 46.6772 73.2033 49.6194 73.4166C50.3548 73.4166 50.845 73.5494 51.0901 73.815C51.2519 74.7887 51.4577 75.9691 51.7225 77.3412C52.2127 79.3084 52.8401 82.3428 53.6049 86.4445C53.6049 86.7543 53.9725 88.1265 54.5608 90.5609C54.9359 91.8974 55.1483 93.2747 55.1932 94.6625C55.1932 96.0396 55.4285 98.8625 55.8991 103.131C56.0278 105.769 56.437 108.386 57.1197 110.936C57.2512 111.216 57.4595 111.451 57.72 111.616C57.9805 111.781 58.2824 111.867 58.5903 111.866C60.2227 111.866 61.208 111.866 61.5316 111.866C61.9802 111.886 62.4134 112.036 62.7787 112.298C63.1441 112.56 63.4261 112.922 63.5905 113.341C63.7261 113.996 63.7805 114.665 63.7522 115.333L63.7669 115.348ZM49.1488 112.397C49.0395 110.018 48.6946 107.655 48.1194 105.344C47.5406 103.054 47.1956 100.711 47.09 98.351C47.0099 97.1751 46.7978 96.012 46.4576 94.8838C45.7223 92.051 44.5899 88.3183 43.0604 83.656C42.8545 84.1281 42.1927 86.1051 41.0898 89.5576C40.4574 91.6084 39.5015 94.7215 38.2367 98.8674C37.7661 100.835 37.0014 103.785 35.9426 107.72C35.6778 109.008 35.1876 110.912 34.4719 113.43H35.1043C37.441 113.376 39.773 113.194 42.0898 112.884C44.4123 112.581 46.7488 112.399 49.09 112.338L49.1488 112.397ZM86.9882 116.823C86.9882 117.428 85.2823 117.723 81.8557 117.723C80.2233 117.723 79.2968 116.705 79.0909 114.654C78.9292 112.972 78.2527 108.915 77.0321 102.453C76.8722 101.704 76.769 100.945 76.7232 100.181C76.733 100.095 76.7233 100.009 76.6947 99.9286C76.6662 99.8479 76.6196 99.7749 76.5586 99.7151C76.4975 99.6552 76.4236 99.6102 76.3425 99.5835C76.2615 99.5568 76.1754 99.549 76.0909 99.5609C75.9291 99.5609 75.6202 100.299 75.1349 101.744C74.5614 103.677 74.0908 105.3 73.6643 106.628C73.179 108.679 72.7084 110.715 72.1937 112.722C71.8576 114.674 71.1592 116.546 70.1348 118.24C69.9044 118.553 69.6089 118.814 69.2687 119.002C68.9285 119.191 68.5517 119.303 68.1641 119.331C67.161 119.335 66.1651 119.16 65.2229 118.815C64.0611 118.387 63.4728 117.812 63.4728 117.089C63.4728 115.249 65.0562 109.923 68.223 101.11C68.5955 100.077 69.0857 98.5576 69.6936 96.551C69.8995 95.474 70.326 93.8953 70.9583 91.8002C71.5907 89.7051 72.7525 88.8494 74.1202 88.8494C74.9407 88.9278 75.7417 89.1474 76.4879 89.4986C77.6186 89.8749 78.7799 90.1513 79.9586 90.3248C80.6958 90.5316 81.3236 91.0185 81.7087 91.6822C82.3891 92.6272 82.8238 93.7277 82.9734 94.8838C83.0764 95.9166 83.3117 97.4953 83.6793 99.6346C84.047 101.774 84.9147 104.4 85.65 107.705C86.3408 110.678 86.7883 113.703 86.9882 116.749V116.823ZM115.239 120.172C111.283 120.172 109.283 119.228 109.283 117.34C109.283 116.395 109.371 114.979 109.518 113.076C109.665 111.172 109.768 109.726 109.768 108.738C109.773 108.685 109.766 108.632 109.748 108.582C109.729 108.532 109.7 108.487 109.662 108.45C109.624 108.414 109.578 108.386 109.527 108.369C109.477 108.353 109.424 108.347 109.371 108.354C108.175 109.342 107.068 110.433 106.062 111.615C103.729 113.946 102.494 115.176 102.356 115.303C98.6994 118.51 96.2483 120.108 95.0032 120.099C94.4655 120.032 93.9565 119.817 93.5326 119.479C93.1548 119.178 92.7113 118.97 92.2384 118.874C91.9821 118.89 91.7276 118.821 91.5148 118.677C91.3019 118.533 91.1427 118.322 91.0619 118.077C90.9223 117.78 90.8138 117.468 90.7384 117.148C90.7384 116.174 92.5619 114.374 96.1944 111.777C97.6192 110.755 98.9176 109.566 100.062 108.236C97.8559 108.088 95.7725 107.164 94.1796 105.625C93.4742 104.931 92.9153 104.102 92.5363 103.187C92.1573 102.272 91.966 101.29 91.9737 100.299C92.0188 98.9916 92.3698 97.7137 92.9983 96.568C93.6267 95.4223 94.5151 94.4411 95.5915 93.7035C97.5003 92.3006 99.6708 91.2971 101.974 90.7527C104.334 90.0889 106.773 89.7465 109.224 89.7346C109.224 89.0855 110.254 88.7609 112.283 88.7609C112.977 88.7923 113.667 88.8912 114.342 89.056C115.013 89.2187 115.697 89.3175 116.386 89.351C116.628 89.2975 116.88 89.3062 117.118 89.3765C117.356 89.4468 117.572 89.5763 117.747 89.753C117.922 89.9296 118.049 90.1478 118.117 90.387C118.185 90.6263 118.192 90.879 118.136 91.1215V110.848C118.136 115.982 117.872 118.859 117.357 119.449C117.068 119.7 116.731 119.887 116.366 119.999C116.002 120.11 115.618 120.144 115.239 120.099V120.172ZM109.607 101.995C109.587 101.417 109.533 100.841 109.445 100.269C109.356 99.6826 109.302 99.0914 109.283 98.4986C109.354 97.6046 109.265 96.705 109.018 95.8428C108.832 95.5182 108.42 95.356 107.783 95.356C105.958 95.3118 104.148 95.6852 102.489 96.4478C101.745 96.7167 101.099 97.2038 100.635 97.8458C100.171 98.4878 99.9097 99.255 99.8857 100.048C99.8857 102.054 101.356 102.999 104.151 102.999C106.024 103.012 107.881 102.64 109.607 101.907V101.995ZM168.77 103.471C168.794 105.559 168.476 107.638 167.829 109.623C167.054 112.023 165.821 114.248 164.197 116.174C163.398 117.264 162.364 118.16 161.172 118.793C159.981 119.427 158.662 119.782 157.314 119.833C152.108 119.833 148.524 118.358 146.564 115.407C145.093 113.267 144.431 109.889 144.431 105.271C144.431 104.444 144.431 103.249 144.637 101.641C144.843 100.033 144.828 98.8232 144.828 98.0117C144.828 90.6937 145.461 85.451 146.725 82.2838C147.474 80.743 148.754 79.5268 150.328 78.8609C153.961 77.2003 157.694 75.7712 161.505 74.5822C162.931 74.1601 164.288 73.534 165.535 72.7232C165.967 72.4161 166.477 72.2371 167.005 72.2068C167.741 72.2068 168.108 72.6199 168.108 73.4314C168.096 73.8724 168.047 74.3116 167.961 74.7445C167.865 75.176 167.811 75.6157 167.8 76.0576C167.803 76.466 167.909 76.867 168.108 77.2232C168.372 77.8519 168.483 78.5347 168.432 79.215C168.432 80.3264 165.638 81.5215 160.049 82.8002C158.787 83.0904 157.548 83.4751 156.343 83.951C155.388 84.3119 154.523 84.8798 153.811 85.6142C153.1 86.3487 152.558 87.2317 152.226 88.2002C151.68 90.0265 151.441 91.9313 151.52 93.8363V94.8691H151.681C152.62 93.5487 153.733 92.3624 154.99 91.3428C156.477 90.3241 158.25 89.8073 160.049 89.8674C160.926 89.9656 161.767 90.2688 162.505 90.7527C164.824 91.9682 166.66 93.9407 167.711 96.3445C168.5 98.6334 168.849 101.051 168.741 103.471H168.77ZM160.079 100.712C160.079 97.4068 159.446 95.7691 158.182 95.7691C157.653 95.7512 157.127 95.858 156.647 96.0809C156.167 96.3038 155.745 96.6367 155.417 97.0527L152.652 100.638C152.389 101.67 152.207 102.72 152.108 103.781C152.134 104.656 152.222 105.529 152.373 106.392C152.534 107.249 152.628 108.117 152.652 108.989C152.652 112.5 153.52 114.241 155.27 114.241C155.74 114.241 156.285 113.813 156.917 112.958C159.035 110.007 160.079 105.92 160.079 100.712V100.712ZM196.286 109.889V111.364C196.027 112.266 195.57 113.098 194.947 113.799C194.069 114.96 193.084 116.037 192.006 117.015C190.933 118.07 189.677 118.92 188.3 119.523C187.354 119.844 186.358 119.994 185.359 119.966C184.193 119.781 183.053 119.459 181.962 119.007C181.285 118.785 180.388 118.446 179.27 117.974C177.45 116.948 175.941 115.446 174.905 113.627C173.869 111.808 173.344 109.741 173.388 107.646C173.487 104.627 174.048 101.642 175.05 98.7937C175.874 95.7992 177.295 93.0035 179.226 90.5756C179.747 90.005 180.385 89.554 181.096 89.2535C181.806 88.953 182.573 88.8101 183.344 88.8346C184.927 88.9022 186.494 89.175 188.006 89.6461C189.433 89.9566 190.796 90.5105 192.036 91.2838C194.3 93.0346 195.433 96.4773 195.433 101.612C195.433 101.951 195.433 102.482 195.433 103.205C195.433 103.928 195.212 104.4 195.212 104.754C195.212 105.108 194.212 105.61 192.271 105.905C191.741 105.994 190.933 106.082 189.815 106.171C189.55 106.171 188.05 106.348 185.271 106.717C182.491 107.085 181.123 107.853 181.123 109.063V111.364C181.123 113.076 181.8 113.931 183.153 113.931C184.503 113.747 185.776 113.191 186.83 112.323C187.986 111.646 189.02 110.778 189.888 109.756C190.153 109.417 190.609 108.885 191.359 108.163C192.109 107.44 192.389 107.322 192.609 107.322C193.486 107.351 194.337 107.628 195.065 108.118C195.918 108.664 196.359 109.225 196.359 109.83L196.286 109.889ZM187.859 100.579C187.859 96.1527 187.183 93.9101 185.815 93.9101C185.447 93.9101 184.771 95.0461 183.8 97.3182C183.115 98.654 182.62 100.079 182.329 101.553C182.329 101.715 182.55 101.803 182.962 101.803C183.896 101.721 184.821 101.558 185.727 101.317C187.197 101.007 187.859 100.756 187.859 100.579V100.579ZM226.963 99.4281C226.786 101.628 226.291 103.79 225.492 105.846C224.188 110.04 221.915 113.867 218.86 117.015C217.492 118.299 216.463 118.933 215.727 118.933C215.358 118.92 214.989 118.88 214.625 118.815C214.266 118.739 213.902 118.694 213.536 118.682C212.86 118.682 212.448 118.918 212.286 119.39V126.531C212.258 127.518 212.18 128.503 212.051 129.482C211.915 130.46 211.836 131.446 211.816 132.433C211.905 133.2 211.778 133.978 211.448 134.676C211.293 134.841 211.103 134.968 210.891 135.047C210.679 135.127 210.452 135.156 210.227 135.133C208.822 135.036 207.452 134.655 206.198 134.012C204.565 133.259 203.757 132.536 203.757 131.725C203.778 131.351 203.858 130.983 203.992 130.633C204.12 130.282 204.199 129.914 204.227 129.541C204.196 128.887 204.118 128.236 203.992 127.594C203.859 126.947 203.78 126.291 203.757 125.631C203.779 124.727 203.858 123.826 203.992 122.931C204.118 122.041 204.197 121.145 204.227 120.246C204.197 119.66 204.118 119.078 203.992 118.505C203.858 117.939 203.779 117.361 203.757 116.779C203.757 115.879 203.757 114.536 203.992 112.766C204.227 110.995 204.227 109.667 204.227 108.812C204.198 107.942 204.12 107.075 203.992 106.215C203.858 105.375 203.779 104.527 203.757 103.677C203.785 103.407 203.881 103.148 204.036 102.925C204.163 102.708 204.243 102.467 204.271 102.217C204.271 102.054 203.845 101.567 203.007 100.741C202.168 99.915 201.742 99.4723 201.742 99.2658C202.015 98.4028 202.443 97.5976 203.007 96.8904C203.676 96.0336 204.112 95.0167 204.271 93.9396V91.7265C204.271 87.492 204.933 85.3674 206.242 85.3674C208.274 85.3609 210.239 86.0949 211.771 87.433C212.004 87.6297 212.19 87.8764 212.314 88.1548C212.439 88.4331 212.5 88.7361 212.492 89.0412C212.492 89.292 212.492 89.4248 212.727 89.4248H214.536C217.768 89.2777 220.952 90.252 223.551 92.1838C224.658 93.0309 225.55 94.1289 226.153 95.388C226.757 96.6471 227.054 98.0315 227.022 99.4281H226.963ZM218.551 98.4986C218.551 95.8428 217.83 94.515 216.389 94.515C215.46 94.5523 214.553 94.8102 213.742 95.2674C212.786 95.7543 212.272 96.3002 212.272 96.8904V111.881C212.272 112.397 212.404 112.692 212.669 112.781C213.649 112.781 214.914 110.641 216.463 106.363C217.499 103.844 218.201 101.2 218.551 98.4986V98.4986ZM254.037 109.83V111.305C253.779 112.207 253.322 113.039 252.699 113.74C251.821 114.902 250.837 115.979 249.758 116.956C248.677 118.009 247.417 118.858 246.037 119.464C245.091 119.786 244.095 119.936 243.096 119.907C241.93 119.722 240.79 119.4 239.699 118.948C239.022 118.726 238.125 118.387 237.022 117.915C235.202 116.888 233.694 115.385 232.658 113.567C231.623 111.748 231.098 109.681 231.14 107.587C231.247 104.569 231.807 101.585 232.802 98.7346C233.624 95.7366 235.05 92.9396 236.993 90.5166C237.511 89.9463 238.146 89.4954 238.854 89.1948C239.562 88.8943 240.327 88.7513 241.096 88.7756C242.678 88.842 244.246 89.1148 245.758 89.5871C247.186 89.8944 248.549 90.4486 249.787 91.2248C252.052 92.9756 253.185 96.4182 253.185 101.553C253.185 101.892 253.185 102.423 253.111 103.146C253.037 103.869 253.023 104.415 253.023 104.754C253.023 105.094 252.023 105.61 250.081 105.905C249.552 105.994 248.743 106.082 247.64 106.171C247.376 106.171 245.861 106.348 243.096 106.717C240.331 107.085 238.949 107.853 238.949 109.063V111.364C238.949 113.076 239.611 113.931 240.978 113.931C242.323 113.745 243.591 113.188 244.64 112.323C245.797 111.646 246.831 110.778 247.699 109.756C247.964 109.417 248.42 108.885 249.17 108.163C249.92 107.44 250.214 107.322 250.42 107.322C251.301 107.353 252.156 107.629 252.89 108.118C253.743 108.664 254.17 109.225 254.17 109.83H254.037ZM245.67 100.579C245.67 96.1527 244.978 93.9101 243.611 93.9101C243.243 93.9101 242.567 95.0461 241.596 97.3182C240.915 98.6555 240.42 100.08 240.125 101.553C240.125 101.715 240.331 101.803 240.758 101.803C241.691 101.718 242.616 101.555 243.522 101.317C244.993 101.007 245.655 100.756 245.655 100.579H245.67ZM295.215 116.631C295.215 117.059 294.759 117.605 293.848 118.299C293.241 118.841 292.489 119.195 291.686 119.317C290.867 119.122 290.109 118.727 289.48 118.166C288.016 117.055 286.791 115.66 285.877 114.064L283.038 109.638C282.671 109.136 282.141 108.354 281.48 107.336C281.156 106.731 280.95 106.436 280.847 106.436C280.465 106.436 280.288 106.599 280.288 106.953C280.307 107.575 280.361 108.196 280.45 108.812C280.646 110.043 280.646 111.298 280.45 112.53C280.234 113.72 280.234 114.939 280.45 116.13C280.534 116.721 280.583 117.318 280.597 117.915C280.597 118.343 280.024 118.712 278.862 119.007C278.069 119.244 277.248 119.373 276.421 119.39C274.95 119.39 273.92 119.154 273.479 118.653C272.922 117.646 272.676 116.495 272.773 115.348C272.773 114.153 272.656 112.943 272.612 111.703C272.567 110.464 272.523 109.712 272.523 109.446C272.563 109.22 272.648 109.004 272.773 108.812V108.236C272.773 107.203 272.582 106.761 272.215 106.761C271.479 106.761 269.558 109.353 266.45 114.536C265.502 116.165 264.445 117.727 263.288 119.213C262.951 119.501 262.536 119.68 262.097 119.73C261.225 119.582 260.375 119.324 259.567 118.963C258.258 118.446 257.596 118.063 257.596 117.797C257.614 117.259 257.728 116.729 257.935 116.233C258.17 115.663 259.552 113.469 262.082 109.653C264.425 106.19 265.592 104.223 265.582 103.751C265.582 103.102 264.244 101.184 261.582 97.9674C258.92 94.751 257.596 92.8625 257.596 92.2576C257.596 91.6527 258.038 91.2838 258.935 90.5904C259.553 90.0304 260.329 89.675 261.155 89.5723C262.136 89.5723 264.097 91.1117 267.038 94.1904C267.141 94.1904 267.994 95.6658 269.567 98.292C271.038 100.564 271.935 101.7 272.42 101.7C272.523 101.7 272.626 101.479 272.729 101.051C272.832 100.623 272.817 99.1625 272.817 96.1822C272.817 95.6215 272.817 94.7068 272.685 93.6445C272.553 92.5822 272.567 91.6674 272.567 91.1068C272.567 89.6314 273.42 88.9822 275.097 88.9822C278.783 88.9822 280.627 90.3101 280.627 92.9658C280.613 93.6319 280.563 94.2967 280.479 94.9576C280.392 95.6184 280.338 96.2832 280.318 96.9494C280.318 97.3773 280.318 97.9674 280.2 98.7494C280.082 99.5314 280.082 100.092 280.082 100.476C280.082 100.859 280.259 101.243 280.627 101.243C281.259 101.243 282.774 99.2953 285.141 95.3412C286.421 92.997 287.897 90.766 289.553 88.6723C289.89 88.4054 290.301 88.2507 290.73 88.2297C291.619 88.3481 292.486 88.5967 293.303 88.9674C294.598 89.4543 295.23 89.8527 295.23 90.1478C295.138 91.3314 294.669 92.4539 293.892 93.3494C293.215 94.2494 291.862 96.3002 289.862 99.4576C288.803 100.957 287.878 102.546 287.097 104.208C287.457 105.687 288.18 107.051 289.2 108.177C290.936 110.582 291.862 111.91 292.024 112.19C292.609 112.987 293.237 113.75 293.906 114.477C294.576 115.063 295.041 115.849 295.23 116.72L295.215 116.631ZM321.143 116.749C321.143 117.354 319.422 117.649 316.01 117.649C314.378 117.649 313.451 116.631 313.245 114.581C313.083 112.899 312.392 108.841 311.186 102.379C311.016 101.632 310.908 100.872 310.863 100.107C310.876 100.021 310.868 99.9335 310.841 99.8514C310.813 99.7692 310.767 99.6948 310.705 99.6342C310.643 99.5736 310.568 99.5287 310.485 99.5031C310.403 99.4776 310.315 99.4721 310.23 99.4871C310.083 99.4871 309.76 100.225 309.289 101.671C308.701 103.603 308.23 105.226 307.819 106.554C307.348 108.605 306.877 110.641 306.348 112.648C306.015 114.599 305.321 116.47 304.304 118.166C304.072 118.482 303.774 118.743 303.431 118.931C303.088 119.12 302.709 119.231 302.318 119.258C301.315 119.259 300.32 119.085 299.377 118.741C298.215 118.313 297.642 117.738 297.642 117.015C297.642 115.176 299.22 109.849 302.377 101.036C302.745 100.003 303.26 98.4838 303.848 96.4773C304.068 95.4002 304.48 93.8215 305.113 91.7265C305.745 89.6314 306.907 88.7756 308.274 88.7756C309.1 88.8535 309.906 89.0731 310.657 89.4248C311.787 89.803 312.949 90.0795 314.128 90.251C314.859 90.4612 315.481 90.9477 315.863 91.6084C316.549 92.5504 316.984 93.6523 317.128 94.8101C317.231 95.8428 317.466 97.4215 317.848 99.5609C318.231 101.7 319.054 104.267 319.731 107.646C320.424 110.619 320.876 113.644 321.084 116.69L321.143 116.749ZM349.349 115.274C349.27 116.156 348.909 116.989 348.32 117.649C348.084 118.063 347.753 118.413 347.353 118.67C346.954 118.927 346.498 119.083 346.026 119.125C344.973 119.145 343.927 118.949 342.952 118.549C342.144 118.012 341.575 117.182 341.364 116.233C341.266 115.938 341.163 115.79 341.055 115.79C340.947 115.79 340.682 116.026 340.261 116.499C339.685 117.286 338.939 117.932 338.077 118.387C337.216 118.842 336.263 119.094 335.29 119.125C333.758 119.084 332.253 118.712 330.878 118.033C329.576 117.54 328.468 116.64 327.716 115.466C326.463 112.691 325.893 109.655 326.054 106.613C326.054 104.725 326.187 101.951 326.452 98.2625C326.775 93.8166 327.143 91.2937 327.554 90.6937C327.878 90.2658 328.554 90.0592 329.613 90.0592C330.77 90.0582 331.918 90.2527 333.011 90.6346C334.481 91.151 335.143 91.815 335.143 92.6264C335.143 94.3379 334.981 96.8756 334.672 100.254C334.364 103.633 334.202 106.156 334.202 107.897C334.124 109.424 334.228 110.954 334.511 112.456C334.731 113.046 334.908 113.356 335.069 113.356C335.795 113.446 336.531 113.348 337.208 113.072C337.885 112.796 338.481 112.35 338.937 111.777C339.777 110.009 340.133 108.049 339.967 106.097C339.967 105.153 339.967 103.736 340.128 101.833C340.29 99.9297 340.275 98.4986 340.275 97.5691C340.275 96.6396 340.275 95.7396 340.128 94.2937C339.981 92.8478 339.967 91.7412 339.967 91.0182C339.972 90.6858 340.063 90.3605 340.23 90.0736C340.398 89.7867 340.636 89.548 340.923 89.3805C341.567 88.9347 342.331 88.6978 343.114 88.7019C344.208 88.7208 345.29 88.9408 346.305 89.351C347.393 89.7789 347.952 90.3543 347.952 91.0773C347.931 91.6162 347.877 92.1532 347.79 92.6855C347.704 93.2177 347.65 93.7548 347.629 94.2937C347.629 95.0166 347.629 96.1232 347.79 97.5986C347.952 99.074 347.952 100.166 347.952 100.903C347.952 102.143 347.849 103.958 347.673 106.363C347.496 108.767 347.393 110.553 347.393 111.748C347.393 113.223 347.717 114.182 348.335 114.566C348.678 114.742 349 114.96 349.29 115.215L349.349 115.274ZM380.085 108.915C379.96 110.472 379.318 111.942 378.262 113.09C376.424 115.436 372.953 117.266 367.835 118.549C365.914 119.057 363.939 119.334 361.953 119.376C360.583 119.483 359.209 119.229 357.967 118.638C357.522 118.284 357.159 117.836 356.905 117.326C356.651 116.817 356.512 116.257 356.497 115.687C356.324 114.455 356.24 113.213 356.247 111.969V92.5969C356.247 90.1035 357.07 88.8642 358.702 88.8642C360.435 88.7771 362.165 89.0847 363.761 89.7642C365.507 89.243 367.31 88.9407 369.129 88.8642C370.717 88.8356 372.305 88.9244 373.879 89.1297C374.949 89.1928 375.986 89.5297 376.889 90.1082C377.793 90.6867 378.534 91.4876 379.041 92.4346C379.383 93.2248 379.544 94.082 379.512 94.9428C379.356 96.3225 378.746 97.6104 377.777 98.6019C376.832 99.7556 375.679 100.722 374.379 101.449C374.115 101.577 373.718 101.813 373.188 102.158C373.188 102.246 373.688 102.364 374.659 102.541C375.467 102.642 376.247 102.902 376.953 103.308C377.952 103.877 378.776 104.71 379.334 105.718C379.891 106.725 380.162 107.867 380.115 109.018L380.085 108.915ZM372.732 94.7363C372.732 94.6478 372.526 94.4707 372.1 94.2199C371.566 93.9385 370.967 93.806 370.365 93.8363C368.558 93.7893 366.76 94.0949 365.07 94.7363C364.967 95.9756 364.835 97.8641 364.673 100.387C370.056 98.4101 372.732 96.5363 372.732 94.7363V94.7363ZM372.497 108.399C372.497 106.348 370.865 105.33 367.6 105.33C366.679 105.324 365.766 105.494 364.909 105.831C364.909 106.481 364.909 107.425 364.791 108.664C364.673 109.903 364.673 110.818 364.673 111.423C364.673 111.718 364.703 112.146 364.761 112.707C364.761 113.267 364.761 113.681 364.761 113.99C366.536 113.732 368.235 113.099 369.747 112.131C371.526 110.966 372.423 109.726 372.423 108.399H372.497ZM425.131 91.5937C425.131 92.656 425.028 94.2494 424.852 96.374C424.675 98.4986 424.572 100.077 424.572 101.154C424.572 101.877 424.572 102.984 424.69 104.459C424.807 105.935 424.807 107.041 424.807 107.764C424.807 108.148 424.807 108.753 424.69 109.564C424.572 110.376 424.572 111.04 424.572 111.349C424.572 111.999 424.572 112.987 424.69 114.3C424.807 115.613 424.807 116.602 424.807 117.251C424.807 118.608 423.984 119.302 422.322 119.302C421.257 119.327 420.192 119.238 419.146 119.036C418.465 118.862 417.851 118.488 417.382 117.963C416.913 117.437 416.611 116.784 416.513 116.085C416.311 114.728 416.232 113.355 416.278 111.984V92.4937C416.278 90.0592 417.087 88.8346 418.69 88.8346C422.984 88.8346 425.131 89.7789 425.131 91.6674V91.5937ZM412.719 108.531C412.719 111.748 410.758 114.335 406.836 116.292C403.281 117.979 399.385 118.817 395.454 118.741C395.13 119.42 394.086 119.759 392.292 119.759C391.644 119.805 390.994 119.699 390.395 119.449C389.661 119.3 388.92 119.192 388.174 119.125C387.027 118.948 386.439 118.653 386.439 118.225C386.439 117.797 386.439 116.926 386.556 115.879C386.674 114.831 386.674 114.049 386.674 113.533V102.763C386.665 102.161 386.626 101.56 386.556 100.963C386.483 100.151 386.439 99.4871 386.439 99.1035C386.439 98.3806 386.439 97.2887 386.556 95.8281C386.674 94.3674 386.674 93.2904 386.674 92.5674C386.674 90.5904 387.571 89.6166 389.365 89.6166C393.777 89.6166 395.924 90.5461 395.924 92.4346C395.924 93.3789 395.836 94.7805 395.645 96.6691C395.454 98.5576 395.365 99.9592 395.365 100.903V101.449C397.68 100.765 400.072 100.378 402.483 100.299C405.143 100.161 407.768 100.953 409.91 102.541C410.809 103.26 411.527 104.181 412.008 105.229C412.488 106.277 412.716 107.423 412.675 108.576L412.719 108.531ZM404.822 108.531C404.822 106.525 403.586 105.581 401.101 105.581C398.16 105.581 396.174 105.979 395.218 106.79C395.218 110.302 395.41 112.308 395.777 112.825C395.924 112.992 396.109 113.122 396.316 113.201C396.524 113.281 396.748 113.309 396.968 113.282C398.783 113.337 400.587 112.984 402.248 112.249C403.001 111.976 403.655 111.48 404.122 110.827C404.589 110.174 404.848 109.394 404.866 108.59L404.822 108.531ZM455.235 90.6199C454.746 92.1453 453.939 93.5486 452.867 94.7363C451.808 96.1527 450.779 97.5543 449.779 98.9412C448.594 100.704 447.561 102.565 446.691 104.503V104.622L449.058 108.664C452.441 114.02 454.117 117.015 454.117 117.649C454.117 118.633 453.514 119.125 452.308 119.125C452.117 119.107 451.929 119.063 451.749 118.992C451.342 118.835 450.892 118.835 450.485 118.992C450.306 119.063 450.118 119.107 449.926 119.125C448.352 119.125 446.646 117.9 444.793 115.466C443.936 114.151 442.951 112.926 441.852 111.807C439.843 114.71 438.049 117.758 436.484 120.925C436.421 121.032 436.39 121.155 436.396 121.279C436.396 121.426 436.293 121.5 436.087 121.5H434.617C434.06 121.467 433.518 121.308 433.032 121.034C432.545 120.761 432.127 120.38 431.808 119.922C431.058 119.152 430.596 118.146 430.499 117.074C430.78 116.33 431.099 115.601 431.455 114.89C431.764 114.33 432.19 113.415 432.719 112.323C432.867 112.028 433.749 110.612 435.322 108.089C436.228 106.9 436.897 105.547 437.293 104.105C437.051 102.822 436.551 101.602 435.823 100.52C434.514 98.292 433.793 97.0527 433.69 96.7871C433.381 96.0199 432.896 94.8838 432.219 93.3937C431.69 92.2723 431.425 91.6969 431.425 91.6527C431.425 91.0183 432.028 90.4428 433.234 89.956C434.234 89.516 435.306 89.2659 436.396 89.2182C437.514 89.2182 438.646 90.5904 439.837 93.3199C441.029 96.0494 441.955 97.4363 442.646 97.4363C443.852 95.6363 445.073 93.8215 446.279 91.9773C448.279 89.0264 449.602 87.551 450.235 87.551C451.297 87.7992 452.297 88.261 453.176 88.9084C454.647 89.8084 455.397 90.3838 455.397 90.6937L455.235 90.6199Z" fill="#95C361" stroke="#1D1D1B" stroke-width="0.03" stroke-miterlimit="22.93"/>
<path d="M0.676305 95.9755C0.454066 95.2625 0.29173 94.5321 0.190996 93.7919C0.0856694 93.1382 0.0315803 92.4771 0.0292265 91.8149C0.0139058 90.6715 0.192946 89.5339 0.558655 88.451C0.979053 87.3442 1.57499 86.3129 2.32341 85.3969C3.43047 84.0551 4.64537 82.8066 5.95588 81.6641L7.6324 83.2723C6.69476 84.4265 5.97238 85.741 5.49998 87.1526C5.07615 88.5884 4.87769 90.0817 4.91173 91.5788C4.92785 93.0683 5.10037 94.5519 5.42645 96.005L0.676305 95.9755ZM10.5443 95.9755C10.336 95.2589 10.1738 94.5295 10.0589 93.7919C9.9658 93.137 9.91667 92.4765 9.91188 91.8149C9.89656 90.6715 10.0756 89.5339 10.4413 88.451C10.8674 87.3438 11.4682 86.3126 12.2208 85.3969C13.312 84.06 14.507 82.8119 15.7944 81.6641L17.4709 83.2723C16.5179 84.4258 15.776 85.7395 15.2797 87.1526C14.8685 88.5908 14.6752 90.0829 14.7061 91.5788C14.7167 93.0678 14.8843 94.5515 15.2062 96.005L10.5443 95.9755Z" fill="#95C361" stroke="#1D1D1B" stroke-width="0.03" stroke-miterlimit="22.93"/>
<path d="M472.647 95.9757C472.969 94.5222 473.136 93.0385 473.147 91.5495C473.178 90.0536 472.985 88.5615 472.573 87.1233C472.077 85.7102 471.335 84.3965 470.382 83.243L472.059 81.6348C473.361 82.7808 474.571 84.029 475.676 85.3675C476.434 86.2796 477.036 87.3117 477.456 88.4216C477.822 89.5046 478.001 90.6422 477.985 91.7856C477.976 92.4475 477.922 93.108 477.824 93.7626C477.709 94.5002 477.546 95.2296 477.338 95.9462L472.647 95.9757ZM462.764 95.9757C463.086 94.5222 463.254 93.0385 463.264 91.5495C463.295 90.0536 463.102 88.5615 462.691 87.1233C462.201 85.7074 461.458 84.3926 460.5 83.243L462.176 81.6348C463.488 82.7867 464.703 84.045 465.808 85.3971C466.557 86.3131 467.153 87.3444 467.573 88.4512C467.939 89.5341 468.118 90.6717 468.103 91.8151C468.1 92.4773 468.046 93.1384 467.941 93.7921C467.84 94.5323 467.678 95.2627 467.456 95.9757H462.764Z" fill="#95C361" stroke="#1D1D1B" stroke-width="0.03" stroke-miterlimit="22.93"/>
</g>
<defs>
<clipPath id="clip0">
<rect width="478" height="135" fill="white"/>
</clipPath>
</defs>
</svg>
