<svg width="179" height="179" viewBox="0 0 179 179" fill="none" xmlns="http://www.w3.org/2000/svg">
<g clip-path="url(#clip0)">
<circle cx="89.0093" cy="89.0093" r="89.5" fill="white"/>
<path d="M142.887 40.6329C142.922 40.0737 143.164 39.5995 143.605 39.2137C144.049 38.828 144.547 38.6545 145.105 38.6935C145.663 38.7324 146.129 38.966 146.502 39.3907C146.876 39.8154 147.046 40.3038 147.014 40.8594C146.982 41.4151 146.744 41.8858 146.3 42.2715C145.859 42.6573 145.354 42.8343 144.792 42.7953C144.231 42.7564 143.761 42.5263 143.388 42.1017C143.015 41.677 142.848 41.1921 142.887 40.6329Z" fill="#FFC5DE"/>
<path d="M158.472 58.8028C158.234 59.7725 157.633 60.4945 156.666 60.9687C156.04 61.2766 155.393 61.4005 154.725 61.3404C154.057 61.2802 153.413 61.0077 152.788 60.5228C152.165 60.0344 151.621 59.3266 151.159 58.3923C150.804 57.6703 150.548 56.9164 150.395 56.1272C150.242 55.338 150.221 54.6125 150.331 53.9542L152.613 53.9966C152.514 54.5311 152.507 55.0902 152.596 55.6742C152.684 56.2582 152.862 56.8209 153.129 57.3553C153.424 57.9499 153.772 58.3604 154.174 58.5834C154.576 58.8099 154.988 58.8205 155.411 58.6117C155.852 58.3958 156.094 58.056 156.144 57.5889C156.193 57.1217 156.001 56.4528 155.568 55.5751L154.274 52.9632L160.314 50.6522L163.399 56.8881L161.494 57.8224L159.382 53.5578L157.352 54.3541L157.765 55.1858C158.472 56.6298 158.71 57.8366 158.472 58.8028Z" fill="#FFC5DE"/>
<path d="M160.811 81.4745C160.026 81.6055 159.368 81.4144 158.842 80.8977C158.312 80.3809 157.95 79.5386 157.754 78.3707L156.979 73.7628L165.657 72.3152L166.4 76.7321C166.581 77.8115 166.528 78.6928 166.236 79.3687C165.948 80.0447 165.447 80.4411 164.736 80.5614C164.306 80.6322 163.908 80.5862 163.545 80.4234C163.179 80.2606 162.873 79.9881 162.621 79.6129C162.447 80.6782 161.842 81.3011 160.811 81.4745ZM160.609 79.0962C160.943 79.0396 161.167 78.8945 161.288 78.6538C161.409 78.4132 161.43 78.0628 161.352 77.6027L160.989 75.4509L159.069 75.7694L159.425 77.8717C159.581 78.7954 159.976 79.2024 160.609 79.0962ZM162.475 75.2032L162.795 77.0966C162.944 77.9743 163.328 78.3601 163.954 78.2575C164.566 78.1548 164.8 77.6664 164.651 76.7887L164.331 74.8953L162.475 75.2032Z" fill="#FFC5DE"/>
<path d="M166.564 90.301C165.927 91.0407 164.957 91.4229 163.649 91.4477L158.629 91.5433L158.583 89.1685L159.678 89.1473C158.849 88.6872 158.426 87.8024 158.398 86.5C158.384 85.8276 158.487 85.2436 158.707 84.7446C158.927 84.2456 159.233 83.8633 159.635 83.5944C160.033 83.3254 160.488 83.1874 161 83.1768C161.818 83.1626 162.468 83.4564 162.948 84.058C163.428 84.6632 163.681 85.6046 163.705 86.8858L163.745 88.9031C164.299 88.8924 164.726 88.7155 165.017 88.3722C165.309 88.0289 165.451 87.5228 165.437 86.8504C165.426 86.3832 165.344 85.9267 165.188 85.4807C165.032 85.0313 164.825 84.6526 164.569 84.3447L166.333 83.3997C166.681 83.8704 166.951 84.4367 167.15 85.102C167.349 85.7674 167.456 86.4505 167.467 87.1547C167.502 88.5138 167.2 89.5613 166.564 90.301ZM160.456 88.2554C160.662 88.5881 160.965 88.8217 161.363 88.9526L162.262 88.9349L162.23 87.1937C162.209 86.1532 161.857 85.6365 161.171 85.6506C160.844 85.6577 160.588 85.7886 160.403 86.047C160.218 86.3053 160.129 86.6557 160.136 87.1017C160.14 87.537 160.246 87.9227 160.456 88.2554Z" fill="#FFC5DE"/>
<path d="M160.577 102.943L160.773 101.739L157.481 101.209L157.882 98.7347L161.174 99.2656L161.37 98.0588L158.373 95.6982L158.853 92.7394L162.899 96.1759L167.506 94.3285L167.076 96.9793L163.393 98.349L163.19 99.5877L166.564 100.133L166.162 102.607L162.788 102.062L162.589 103.283L165.65 105.753L165.22 108.404L161.434 105.204L156.503 107.214L156.986 104.242L160.577 102.943Z" fill="#FFC5DE"/>
<path d="M164.146 111.5L163.275 113.872L160.051 112.693L158.732 116.271L161.956 117.446L161.078 119.832L152.816 116.816L153.695 114.431L156.78 115.556L158.099 111.978L155.013 110.853L155.884 108.482L164.146 111.5Z" fill="#FFC5DE"/>
<path d="M154.772 131.352L153.474 133.517L145.916 129.033L147.214 126.867L154.772 131.352ZM152.632 127.961C151.899 128.209 151.131 128.096 150.324 127.618C149.482 127.119 149.002 126.446 148.881 125.608C148.764 124.765 149.016 123.824 149.642 122.78L151.849 119.124L159.408 123.608L158.11 125.777L155.696 124.344L154.622 126.135C154.029 127.101 153.364 127.713 152.632 127.961ZM151.01 124.627C151.064 124.963 151.277 125.239 151.654 125.462C152.02 125.678 152.351 125.728 152.649 125.608C152.948 125.487 153.232 125.218 153.499 124.794L154.292 123.502L152.102 122.203L151.323 123.502C151.06 123.919 150.957 124.295 151.01 124.627Z" fill="#FFC5DE"/>
<path d="M140.665 135.149L143.967 135.446L143.224 132.187L145.037 130.088L146.186 135.521L151.629 135.889L149.762 138.048L146.602 137.786L147.298 140.897L145.528 142.946L144.401 137.683L138.773 137.329L140.665 135.149Z" fill="#FFC5DE"/>
<path d="M134.66 151.588C133.832 151.73 133.036 151.652 132.275 151.351C131.514 151.054 130.871 150.558 130.345 149.865C129.818 149.171 129.513 148.421 129.431 147.61C129.349 146.8 129.488 146.018 129.85 145.264C130.213 144.507 130.771 143.845 131.528 143.275C132.197 142.772 132.89 142.425 133.601 142.238C134.312 142.05 135.005 142.029 135.677 142.174L135.347 144.138C134.401 143.993 133.551 144.206 132.794 144.775C132.289 145.154 131.951 145.607 131.777 146.135C131.603 146.662 131.614 147.189 131.813 147.72L134.76 145.501L135.816 146.892L132.894 149.09C133.349 149.401 133.846 149.543 134.387 149.518C134.927 149.493 135.446 149.291 135.94 148.92C136.687 148.357 137.121 147.596 137.238 146.634L139.218 146.839C139.182 147.532 138.98 148.194 138.603 148.824C138.226 149.454 137.704 150.02 137.035 150.527C136.285 151.093 135.492 151.447 134.66 151.588Z" fill="#FFC5DE"/>
<path d="M122.996 159.024L118.798 151.326L121.038 150.113L124.237 155.977L126.679 154.657L126.011 153.259C125.499 152.225 125.137 151.337 124.923 150.587C124.713 149.837 124.674 149.178 124.813 148.608C124.948 148.039 125.325 147.589 125.936 147.26C126.263 147.083 126.679 146.931 127.195 146.803L128.08 148.697C127.917 148.761 127.803 148.81 127.735 148.849C127.401 149.03 127.216 149.288 127.181 149.621C127.145 149.953 127.202 150.325 127.351 150.732C127.501 151.139 127.728 151.663 128.037 152.296L129.609 155.45L122.996 159.024Z" fill="#FFC5DE"/>
<path d="M109.633 158.635L115.908 156.426C115.613 155.956 115.204 155.644 114.678 155.495C114.151 155.347 113.572 155.382 112.946 155.602C112.516 155.754 112.153 155.952 111.866 156.196C111.578 156.44 111.339 156.752 111.147 157.131L109.377 156.2C109.843 155.035 110.824 154.19 112.324 153.659C113.259 153.33 114.151 153.22 115.001 153.33C115.851 153.439 116.583 153.747 117.202 154.257C117.82 154.763 118.275 155.428 118.567 156.246C118.855 157.056 118.919 157.853 118.766 158.638C118.609 159.424 118.261 160.118 117.717 160.716C117.173 161.317 116.484 161.763 115.652 162.053C114.841 162.34 114.041 162.425 113.263 162.308C112.481 162.192 111.787 161.877 111.183 161.356C110.579 160.84 110.124 160.149 109.818 159.289C109.807 159.265 109.743 159.045 109.633 158.635ZM116.203 159.311C116.462 158.875 116.54 158.376 116.434 157.814L112.349 159.251C112.616 159.742 112.989 160.082 113.472 160.263C113.952 160.443 114.461 160.443 114.998 160.252C115.541 160.061 115.943 159.75 116.203 159.311Z" fill="#FFC5DE"/>
<path d="M97.9188 157.194L98.7862 162.365L100.656 157.598L101.723 157.421L104.986 161.353L104.115 156.168L106.391 155.789L107.841 164.428L105.214 164.864L101.595 160.33L99.4795 165.816L97.126 166.209L95.6436 157.577L97.9188 157.194Z" fill="#FFC5DE"/>
<path d="M84.5836 161.25L91.2387 161.3C91.1213 160.755 90.844 160.326 90.3961 160.008C89.9517 159.689 89.3971 159.53 88.7323 159.523C88.2737 159.519 87.8685 159.583 87.5129 159.718C87.1574 159.852 86.8268 160.061 86.5175 160.351L85.1702 158.875C86.0056 157.937 87.2179 157.474 88.8105 157.484C89.8024 157.492 90.677 157.69 91.4377 158.083C92.1985 158.475 92.7816 159.013 93.1904 159.7C93.5992 160.387 93.8019 161.165 93.7948 162.032C93.7876 162.889 93.5779 163.66 93.1655 164.347C92.7531 165.033 92.1879 165.568 91.4697 165.947C90.7516 166.325 89.9517 166.513 89.0701 166.506C88.2097 166.499 87.4312 166.308 86.7344 165.936C86.0412 165.561 85.4972 165.03 85.1026 164.336C84.7116 163.643 84.516 162.843 84.5231 161.93C84.5267 161.898 84.548 161.671 84.5836 161.25ZM90.5312 164.11C90.9258 163.788 91.1676 163.345 91.26 162.779L86.9264 162.747C87.0081 163.303 87.2463 163.745 87.6374 164.078C88.0284 164.411 88.5048 164.58 89.0736 164.584C89.6495 164.591 90.1366 164.432 90.5312 164.11Z" fill="#FFC5DE"/>
<path d="M81.0109 166.035L78.5117 165.618L79.0805 162.245L75.3086 161.611L74.7362 164.984L72.2192 164.563L73.6804 155.927L76.1974 156.349L75.6499 159.576L79.4218 160.21L79.9693 156.982L82.4685 157.4L81.0109 166.035Z" fill="#FFC5DE"/>
<path d="M62.0835 159.286L64.9134 160.203L66.9895 153.857L69.3999 154.639L67.3237 160.985L70.1536 161.901L69.5065 163.883L61.4365 161.268L62.0835 159.286Z" fill="#FFC5DE"/>
<path d="M61.4115 152.183C61.9021 152.852 62.1866 153.581 62.2577 154.377C62.3288 155.173 62.1723 155.959 61.7919 156.741C61.4116 157.523 60.8818 158.129 60.2099 158.564C59.538 158.996 58.7844 159.226 57.9525 159.254C57.1206 159.279 56.2887 159.091 55.4568 158.684C54.6249 158.281 53.9637 157.746 53.4766 157.081C52.9896 156.416 52.7123 155.687 52.6412 154.89C52.5701 154.094 52.7265 153.308 53.1069 152.526C53.4909 151.744 54.017 151.139 54.6925 150.707C55.3644 150.272 56.1145 150.042 56.9428 150.013C57.7676 149.985 58.5995 150.176 59.4314 150.58C60.2562 150.979 60.9209 151.517 61.4115 152.183ZM56.7686 152.339C56.1963 152.551 55.7483 152.986 55.4248 153.652C55.1013 154.317 55.0302 154.936 55.2115 155.513C55.3964 156.09 55.7803 156.522 56.3705 156.808C56.9606 157.095 57.5401 157.13 58.116 156.922C58.6919 156.713 59.1434 156.274 59.4669 155.612C59.7904 154.947 59.8615 154.327 59.6731 153.747C59.4847 153.167 59.0972 152.731 58.5071 152.448C57.9205 152.165 57.341 152.126 56.7686 152.339Z" fill="#FFC5DE"/>
<path d="M39.2391 140.316C39.232 140.875 39.0151 141.36 38.5921 141.767C38.169 142.174 37.6784 142.372 37.1203 142.358C36.5621 142.344 36.0857 142.135 35.6911 141.732C35.2965 141.328 35.101 140.847 35.1081 140.288C35.1152 139.729 35.3285 139.251 35.7516 138.84C36.1746 138.433 36.6688 138.235 37.2305 138.242C37.7922 138.249 38.2721 138.458 38.6667 138.865C39.0542 139.276 39.2498 139.757 39.2391 140.316Z" fill="#FFC5DE"/>
<path d="M20.3222 118.182C20.5746 117.216 21.1861 116.501 22.1602 116.041C22.7894 115.74 23.44 115.627 24.1048 115.698C24.7731 115.769 25.413 116.048 26.0316 116.544C26.6467 117.039 27.1835 117.758 27.6314 118.699C27.9798 119.425 28.2251 120.182 28.3673 120.975C28.5095 121.768 28.5202 122.493 28.4029 123.148L26.1205 123.074C26.2272 122.543 26.2414 121.983 26.1596 121.396C26.0778 120.808 25.9108 120.246 25.6512 119.708C25.3668 119.11 25.022 118.696 24.6238 118.466C24.2221 118.236 23.8097 118.218 23.3867 118.42C22.9458 118.628 22.6934 118.965 22.6401 119.432C22.5832 119.895 22.7681 120.571 23.1876 121.453L24.4461 124.082L18.374 126.308L15.3735 120.033L17.2933 119.124L19.3445 123.417L21.3852 122.649L20.9834 121.81C20.2938 120.355 20.0698 119.149 20.3222 118.182Z" fill="#FFC5DE"/>
<path d="M18.9467 100.593C19.7217 100.416 20.3901 100.572 20.9482 101.056C21.5064 101.541 21.9188 102.362 22.1819 103.516L23.227 108.071L14.6487 110.025L13.6461 105.661C13.4008 104.592 13.4044 103.711 13.6532 103.021C13.9021 102.327 14.3785 101.902 15.0788 101.743C15.5054 101.647 15.9036 101.669 16.2769 101.814C16.6502 101.955 16.9737 102.21 17.2474 102.568C17.3612 101.485 17.9264 100.826 18.9467 100.593ZM17.6562 106.953L17.2261 105.08C17.027 104.213 16.6182 103.849 16.0031 103.99C15.3988 104.128 15.1926 104.631 15.3917 105.498L15.8218 107.37L17.6562 106.953ZM19.288 102.957C18.9574 103.031 18.7405 103.194 18.6339 103.438C18.5272 103.686 18.5272 104.036 18.6339 104.489L19.1209 106.616L21.0193 106.185L20.543 104.107C20.3332 103.198 19.9137 102.812 19.288 102.957Z" fill="#FFC5DE"/>
<path d="M12.6857 92.1131C13.2759 91.338 14.2215 90.8992 15.5262 90.8001L20.5318 90.4108L20.7166 92.782L19.6252 92.8669C20.4785 93.281 20.9548 94.1375 21.0544 95.4328C21.1077 96.1052 21.0366 96.6927 20.8482 97.2024C20.6562 97.712 20.3718 98.1119 19.9914 98.4021C19.611 98.6924 19.1631 98.8587 18.6511 98.8976C17.837 98.9613 17.1722 98.7065 16.6568 98.1296C16.1413 97.5528 15.8355 96.629 15.7324 95.3514L15.576 93.3376C15.0214 93.3801 14.609 93.5818 14.3353 93.9393C14.0615 94.2967 13.9513 94.8135 14.0047 95.4824C14.0402 95.946 14.1504 96.399 14.3317 96.8378C14.513 97.2767 14.7406 97.6412 15.0143 97.935L13.3079 98.9826C12.9346 98.5331 12.6289 97.981 12.3907 97.3298C12.1525 96.6786 12.0067 96.0026 11.9534 95.2983C11.8539 93.9534 12.0956 92.8882 12.6857 92.1131ZM18.9036 93.8048C18.676 93.4863 18.3632 93.2704 17.9579 93.1607L17.062 93.2315L17.1971 94.9692C17.2789 96.0097 17.6593 96.5016 18.3454 96.4485C18.6725 96.4238 18.9213 96.2751 19.092 96.0061C19.2626 95.7372 19.3302 95.3797 19.2946 94.9373C19.2626 94.4985 19.1311 94.1233 18.9036 93.8048Z" fill="#FFC5DE"/>
<path d="M17.9262 79.1386L17.8018 80.3526L21.1222 80.6923L20.8662 83.1874L17.5493 82.8477L17.4178 84.0616L20.5463 86.2452L20.2405 89.2252L15.9993 86.0258L11.5093 88.1422L11.783 85.4702L15.3807 83.8882L15.5087 82.6424L12.1101 82.2955L12.366 79.8005L15.7647 80.1473L15.8927 78.9157L12.6931 76.6258L12.9669 73.9538L16.9343 76.9267L21.7408 74.6333L21.4315 77.631L17.9262 79.1386Z" fill="#FFC5DE"/>
<path d="M13.8594 70.8182L14.5917 68.401L17.8802 69.3884L18.9822 65.7395L15.6938 64.7521L16.4297 62.3207L24.8552 64.8441L24.1193 67.2755L20.9731 66.3306L19.871 69.9794L23.0172 70.9244L22.2849 73.3416L13.8594 70.8182Z" fill="#FFC5DE"/>
<path d="M24.3785 53.7028C25.093 53.4126 25.868 53.4834 26.6999 53.9116C27.5709 54.3611 28.09 55.0017 28.2571 55.8369C28.4241 56.6686 28.2286 57.6242 27.6669 58.7036L25.6796 62.4834L17.8691 58.4523L19.0352 56.2121L21.5309 57.5003L22.4943 55.6493C23.0347 54.6407 23.6603 53.993 24.3785 53.7028ZM22.0428 50.4433L23.2089 48.203L31.0193 52.2341L29.8533 54.4743L22.0428 50.4433ZM26.1951 56.934C26.1205 56.6014 25.8929 56.3359 25.5054 56.1377C25.1286 55.9431 24.7944 55.9148 24.5029 56.0493C24.2114 56.1873 23.9448 56.474 23.703 56.9128L22.9884 58.2506L25.253 59.4185L25.9534 58.0737C26.188 57.6454 26.2698 57.2632 26.1951 56.934Z" fill="#FFC5DE"/>
<path d="M35.9006 45.8247L32.5837 45.7221L33.5152 48.932L31.8265 51.1299L30.3583 45.7716L24.9048 45.7185L26.6432 43.457L29.8143 43.5349L28.9362 40.47L30.5858 38.3217L32.0185 43.5101L37.6568 43.5384L35.9006 45.8247Z" fill="#FFC5DE"/>
<path d="M40.9384 29.0669C41.7561 28.8793 42.556 28.9112 43.331 29.166C44.106 29.4208 44.7779 29.8773 45.3432 30.5392C45.9084 31.201 46.2568 31.9336 46.3848 32.737C46.5128 33.5404 46.4204 34.3296 46.104 35.1047C45.7876 35.8797 45.2685 36.5734 44.5468 37.1857C43.9069 37.7272 43.2386 38.1129 42.5418 38.343C41.8414 38.573 41.1518 38.6332 40.4727 38.527L40.6896 36.5451C41.6424 36.6371 42.4778 36.3752 43.1995 35.7629C43.6794 35.3559 43.9923 34.8817 44.1345 34.3473C44.2767 33.8129 44.234 33.2855 44.0065 32.7653L41.1944 35.1507L40.0603 33.8235L42.8475 31.4593C42.3747 31.1762 41.8699 31.063 41.3331 31.1196C40.7962 31.1762 40.2879 31.4063 39.815 31.8062C39.1005 32.4114 38.713 33.1971 38.6525 34.1632L36.6653 34.0748C36.6581 33.3811 36.8252 32.7087 37.163 32.0575C37.5007 31.4063 37.9913 30.8117 38.6277 30.2667C39.3493 29.6579 40.1208 29.258 40.9384 29.0669Z" fill="#FFC5DE"/>
<path d="M52.1403 20.9658L56.7868 28.4015L54.6217 29.7429L51.0809 24.0767L48.7203 25.5384L49.4704 26.8939C50.0428 27.8954 50.4587 28.7625 50.7147 29.4987C50.9707 30.2348 51.0453 30.8931 50.9422 31.4664C50.8391 32.0433 50.4907 32.514 49.9006 32.8786C49.5877 33.0732 49.1753 33.2502 48.6741 33.4094L47.6787 31.5726C47.8386 31.4983 47.9488 31.4417 48.0164 31.4027C48.3399 31.201 48.5106 30.9356 48.5248 30.5993C48.539 30.2631 48.4608 29.8986 48.2901 29.4987C48.1195 29.0988 47.86 28.5927 47.5116 27.9768L45.7554 24.9226L52.1403 20.9658Z" fill="#FFC5DE"/>
<path d="M65.4967 20.573L59.3642 23.1459C59.6877 23.5989 60.1143 23.8856 60.6511 24.0024C61.1844 24.1192 61.7603 24.052 62.3718 23.7936C62.7948 23.6166 63.1432 23.3972 63.417 23.1353C63.6907 22.8734 63.9111 22.5478 64.0782 22.1621L65.902 22.9867C65.5073 24.1758 64.5759 25.0783 63.1077 25.6941C62.194 26.0763 61.3088 26.2391 60.4556 26.179C59.6024 26.1188 58.8522 25.8534 58.2017 25.3827C57.5546 24.912 57.0605 24.2785 56.7228 23.4786C56.3886 22.6894 56.2748 21.8966 56.3815 21.1039C56.4881 20.3111 56.7974 19.5997 57.3058 18.9662C57.8142 18.3362 58.4754 17.8478 59.2895 17.5081C60.0823 17.1754 60.8751 17.0445 61.6608 17.1152C62.4464 17.186 63.1574 17.4621 63.7938 17.9434C64.4302 18.4247 64.9243 19.0865 65.2798 19.9253C65.2905 19.9536 65.3616 20.1695 65.4967 20.573ZM58.8985 20.2828C58.6638 20.7358 58.6176 21.2383 58.7563 21.7904L62.7486 20.1164C62.4535 19.6386 62.0589 19.3237 61.5683 19.1715C61.0777 19.0193 60.5693 19.0512 60.0468 19.2706C59.517 19.4935 59.1331 19.8298 58.8985 20.2828Z" fill="#FFC5DE"/>
<path d="M77.2746 21.3303L76.105 16.2198L74.5194 21.0897L73.4671 21.3303L69.9796 17.5965L71.1528 22.7212L68.906 23.2308L66.9507 14.6909L69.5494 14.0999L73.4209 18.4141L75.2091 12.8152L77.5377 12.2878L79.525 20.8207L77.2746 21.3303Z" fill="#FFC5DE"/>
<path d="M90.3503 16.5065L83.7023 16.8428C83.8481 17.3772 84.1538 17.7913 84.616 18.085C85.0781 18.3788 85.6398 18.5062 86.3046 18.4743C86.7632 18.4495 87.165 18.3646 87.5098 18.2089C87.8582 18.0567 88.1746 17.8266 88.4661 17.5152L89.8953 18.9096C89.1167 19.8935 87.9329 20.4279 86.3402 20.5093C85.3483 20.5589 84.4631 20.4102 83.681 20.0634C82.8989 19.7165 82.2839 19.214 81.8359 18.5522C81.388 17.8904 81.1391 17.1259 81.0965 16.2588C81.0538 15.4023 81.2173 14.6202 81.5906 13.9124C81.9639 13.2045 82.4972 12.6383 83.1904 12.2171C83.8836 11.796 84.6729 11.5624 85.5545 11.5199C86.4148 11.4774 87.2041 11.6225 87.9186 11.9552C88.6332 12.2879 89.2091 12.7905 89.6393 13.4558C90.073 14.1247 90.3112 14.9139 90.3574 15.8235C90.3681 15.8553 90.361 16.0819 90.3503 16.5065ZM84.2463 13.9973C83.873 14.3406 83.6526 14.8007 83.5957 15.3669L87.9222 15.1475C87.8084 14.599 87.5454 14.1707 87.1365 13.8593C86.7277 13.5478 86.2407 13.4063 85.6718 13.4346C85.0995 13.4629 84.6231 13.6505 84.2463 13.9973Z" fill="#FFC5DE"/>
<path d="M93.6422 11.52L96.1627 11.7925L95.7895 15.19L99.5934 15.6041L99.9667 12.2066L102.501 12.4826L101.549 21.1889L99.0139 20.9128L99.3694 17.6604L95.5655 17.2463L95.21 20.4987L92.6895 20.2262L93.6422 11.52Z" fill="#FFC5DE"/>
<path d="M112.932 17.1577L110.052 16.4074L108.353 22.8663L105.9 22.2293L107.599 15.7704L104.72 15.0201L105.249 13.0027L113.462 15.1404L112.932 17.1577Z" fill="#FFC5DE"/>
<path d="M114.02 24.2041C113.49 23.5671 113.163 22.8522 113.046 22.0629C112.929 21.2737 113.035 20.4774 113.373 19.6776C113.707 18.8742 114.198 18.2371 114.845 17.7664C115.492 17.2957 116.228 17.0197 117.056 16.9489C117.884 16.8746 118.727 17.0161 119.58 17.3701C120.437 17.724 121.127 18.2194 121.653 18.8565C122.179 19.49 122.499 20.2049 122.62 20.9941C122.737 21.7834 122.63 22.5797 122.293 23.3795C121.959 24.1829 121.468 24.8164 120.821 25.2906C120.174 25.7649 119.438 26.0374 118.617 26.1153C117.796 26.1931 116.953 26.0516 116.1 25.6976C115.243 25.3366 114.55 24.8412 114.02 24.2041ZM118.645 23.7759C119.203 23.5317 119.623 23.0681 119.907 22.385C120.192 21.7055 120.227 21.0791 120.007 20.5128C119.79 19.9465 119.378 19.536 118.773 19.2883C118.169 19.037 117.586 19.0334 117.024 19.2776C116.462 19.5218 116.039 19.9819 115.755 20.665C115.471 21.348 115.439 21.9709 115.662 22.5407C115.886 23.1105 116.299 23.5175 116.903 23.7688C117.508 24.0201 118.087 24.0236 118.645 23.7759Z" fill="#FFC5DE"/>
<path d="M130.619 30.5144C130.203 31.1904 129.627 31.5584 128.887 31.6186C128.148 31.6788 127.273 31.3992 126.256 30.7798L122.253 28.3414L126.843 20.8702L130.679 23.2061C131.617 23.7794 132.25 24.3952 132.57 25.0535C132.894 25.7153 132.865 26.3488 132.492 26.9611C132.264 27.3327 131.969 27.5981 131.603 27.768C131.237 27.9344 130.832 27.9874 130.38 27.9308C131.088 28.7661 131.166 29.6296 130.619 30.5144ZM128.685 29.1093C128.862 28.8227 128.898 28.5537 128.795 28.306C128.692 28.0582 128.439 27.814 128.041 27.5698L126.171 26.4302L125.154 28.083L126.982 29.1943C127.782 29.6862 128.35 29.6579 128.685 29.1093ZM126.957 25.1561L128.603 26.1577C129.364 26.6213 129.911 26.5859 130.242 26.048C130.565 25.5207 130.348 25.0252 129.584 24.558L127.938 23.5564L126.957 25.1561Z" fill="#FFC5DE"/>
<g clip-path="url(#clip1)">
<path d="M119.505 60.4955C114.844 55.8348 107.26 55.8348 102.6 60.4955L76.1149 86.9801C74.4561 88.6389 73.0815 90.5421 72.0285 92.6379L66.9988 101.731L57.3361 111.394C55.8308 112.899 55.002 114.9 55.002 117.029C55.002 119.158 55.8308 121.159 57.3361 122.664C60.4505 125.779 65.4914 125.779 68.6062 122.664L78.2689 113.001L87.3626 107.971C89.4582 106.918 91.3616 105.544 93.0201 103.885C94.4665 102.439 118.725 78.1804 119.505 77.4006C124.165 72.7399 124.165 65.1563 119.505 60.4955ZM65.7886 119.846C64.2312 121.404 61.7109 121.404 60.1536 119.846L60.1535 119.846C58.6 118.293 58.6 115.765 60.1536 114.211L68.6062 105.759L74.2413 111.394L65.7886 119.846ZM85.5424 104.427C85.5177 104.439 85.4934 104.452 85.4691 104.465L77.4071 108.925L71.0756 102.593L75.5349 94.5312C75.5484 94.507 75.5611 94.4826 75.5735 94.4578C76.8886 91.8278 78.3939 90.3361 79.446 89.2843C79.3779 92.3455 80.4 95.2744 82.5631 97.4372C84.7336 99.6078 87.6601 100.621 90.716 100.555C89.9073 101.363 88.3337 103.031 85.5424 104.427ZM98.0596 93.2107C94.1756 97.0946 88.4879 97.7266 85.3806 94.6195C82.2737 91.5125 82.9055 85.8252 86.789 81.9412L86.7903 81.9398C90.653 78.0778 96.3568 77.4202 99.4685 80.5316C102.581 83.6442 101.921 89.3489 98.0596 93.2107ZM105.417 85.8533C105.488 82.6855 104.394 79.8217 102.286 77.7143C100.178 75.6067 97.3138 74.5123 94.1469 74.5831L102.6 66.1306L113.87 77.401L105.417 85.8533ZM116.687 74.5832L105.417 63.313C108.524 60.2058 113.58 60.2061 116.687 63.313C119.794 66.4201 119.794 71.4759 116.687 74.5832Z" fill="#5C75D6"/>
<path d="M96.6494 88.9846L91.0143 83.3494C90.2364 82.5714 88.9748 82.5714 88.1968 83.3494C87.4188 84.1275 87.4188 85.3889 88.1968 86.1669L93.8319 91.802C94.6098 92.5801 95.8715 92.5801 96.6494 91.802C97.4274 91.024 97.4274 89.7626 96.6494 88.9846Z" fill="#5C75D6"/>
</g>
</g>
<defs>
<clipPath id="clip0">
<rect width="179" height="179" fill="white"/>
</clipPath>
<clipPath id="clip1">
<rect width="68" height="68" fill="white" transform="translate(55 57)"/>
</clipPath>
</defs>
</svg>
