<svg width="469" height="413" viewBox="0 0 469 413" fill="none" xmlns="http://www.w3.org/2000/svg">
<circle cx="280.505" cy="132.408" r="132.408" fill="#FF8793"/>
<circle cx="280.505" cy="132.408" r="132.408" fill="url(#paint0_linear)"/>
<circle cx="390.948" cy="173.825" r="68.4003" fill="#FEEABA"/>
<circle cx="390.948" cy="173.825" r="68.4003" fill="url(#paint1_linear)"/>
<path fill-rule="evenodd" clip-rule="evenodd" d="M-1.02314e-05 178.217C6.13909e-05 307.489 104.795 412.284 234.067 412.284C363.339 412.284 468.134 307.489 468.134 178.217L-1.02314e-05 178.217Z" fill="#78C2BE"/>
<path fill-rule="evenodd" clip-rule="evenodd" d="M-1.02314e-05 178.217C6.13909e-05 307.489 104.795 412.284 234.067 412.284C363.339 412.284 468.134 307.489 468.134 178.217L-1.02314e-05 178.217Z" fill="url(#paint2_linear)"/>
<defs>
<linearGradient id="paint0_linear" x1="412.912" y1="-65.7566" x2="280.505" y2="184.889" gradientUnits="userSpaceOnUse">
<stop stop-color="white"/>
<stop offset="1" stop-color="white" stop-opacity="0"/>
</linearGradient>
<linearGradient id="paint1_linear" x1="459.348" y1="71.4552" x2="390.948" y2="200.936" gradientUnits="userSpaceOnUse">
<stop stop-color="white"/>
<stop offset="1" stop-color="white" stop-opacity="0"/>
</linearGradient>
<linearGradient id="paint2_linear" x1="447.989" y1="178.217" x2="-256.131" y2="412.284" gradientUnits="userSpaceOnUse">
<stop stop-color="#C2E6E6"/>
<stop offset="1" stop-color="#8BCBC8" stop-opacity="0"/>
</linearGradient>
</defs>
</svg>
