<svg width="85" height="89" viewBox="0 0 85 89" fill="none" xmlns="http://www.w3.org/2000/svg">
<g clip-path="url(#clip0)">
<g clip-path="url(#clip1)">
<path d="M72.3654 22.0691C71.8494 21.4212 71.1057 20.9521 70.287 20.7627C69.8599 20.6783 69.3974 20.6143 68.9758 20.6213C68.9199 20.6063 68.8284 20.6117 68.793 20.6322C68.8236 18.3919 67.2908 16.3922 64.8677 16.3725C64.8402 15.9155 64.6654 15.4489 64.2873 14.9578C63.8069 14.2894 63.0686 13.9117 62.2554 13.8138C61.8488 13.7648 61.4477 13.8072 61.067 13.8851C61.0316 13.9056 60.9047 13.9315 60.8338 13.9725C61.648 13.1713 62.1362 12.1329 61.2681 11.1208C60.2212 9.88091 58.5213 10.2949 57.1326 11.0021C56.8789 11.054 56.6251 11.1059 56.3918 11.1933C56.9563 10.2053 56.8645 8.9815 55.8041 8.12773C54.3002 6.91528 52.4245 7.7618 51.0482 8.98199C50.7355 8.35857 50.2101 7.85801 49.5388 7.67813C47.3774 7.12898 44.7119 8.57335 43.8161 10.4619C43.4738 11.1797 44.5382 11.7947 44.8805 11.0769C44.9105 10.965 44.9964 10.8681 45.0468 10.7917C45.1657 11.2433 45.7756 11.3168 46.0893 11.0411C46.8886 10.2959 48.2609 9.31443 49.0605 9.79853C49.3772 10.1832 48.9816 10.317 49.2123 10.7986C49.4895 11.4425 49.6069 11.5639 50.2222 11.7288C50.2782 11.7438 50.3341 11.7587 50.3696 11.7383C50.5444 12.2048 50.8855 12.3862 51.3481 12.4502C51.5214 12.5865 51.7452 12.6465 51.9989 12.5946C52.1368 12.7514 52.396 12.7909 52.5584 12.7445C52.8271 12.6366 53.0399 12.5137 53.2473 12.2995C53.5829 12.3894 53.984 12.347 54.3033 12.1627C54.4002 12.2486 54.5175 12.37 54.6649 12.3795C54.4126 12.7616 54.3281 13.1887 54.8931 13.43C55.3816 13.6209 55.7812 13.2483 55.8302 12.8417C55.8862 12.8567 55.9626 12.9071 56.054 12.9016C55.7567 13.4516 55.6533 14.1734 56.0314 14.6644C56.3126 15.0695 56.8161 15.2045 57.2621 14.9942C57.4954 14.9068 57.6877 14.7485 57.8391 14.5192C57.9305 14.5137 57.9865 14.5287 58.0574 14.4878C57.917 14.8999 58.2651 15.5028 58.7672 15.3075C58.8026 15.2871 58.8381 15.2666 58.8381 15.2666C58.8845 15.4289 58.9814 15.5148 59.1343 15.6158C58.9939 16.0278 59.301 16.5599 59.859 16.3796C60.0568 16.3127 60.2751 16.2812 60.4934 16.2498C60.7526 16.2892 60.9764 16.3492 61.2002 16.4092C61.5823 16.6615 61.9549 17.0611 62.2811 17.2984C62.5308 17.4852 62.7956 17.6161 63.0398 17.7116C63.0398 17.7116 63.0398 17.7116 63.0043 17.732C62.7561 17.8754 62.5433 17.9982 62.3509 18.1566C62.1586 18.3149 62.1246 18.6656 62.2475 18.8784C62.5546 19.4104 63.0322 19.4184 63.5042 19.335C63.6231 19.7866 63.8688 20.2122 64.0476 20.44C64.4257 20.9311 65.3087 21.8872 66.122 21.9852C66.0715 22.0616 66.0415 22.1735 65.9911 22.2499C65.9761 22.3059 65.9611 22.3618 65.9256 22.3823C65.6543 23.0591 66.7023 23.3999 67.0555 22.8649C67.3326 23.5088 67.8881 23.8975 68.509 24.1538C68.7956 24.6503 69.1383 25.1619 69.4194 25.567C69.4809 25.6734 69.5778 25.7593 69.7101 25.8248C69.4374 26.1714 69.5972 26.6939 69.9533 26.8193C69.9738 26.8548 69.9793 26.9462 69.9998 26.9817C70.5267 27.8124 70.9977 28.6282 71.3622 29.5053C71.4606 29.9215 71.559 30.3376 71.7433 30.6568C71.6928 30.7332 71.6423 30.8096 71.5714 30.8506C71.2127 31.2941 71.6277 32.0949 72.1652 31.8791C72.1327 32.56 72.2885 33.3212 72.4019 33.6814C72.5971 34.1834 73.0955 35.4562 73.7424 35.8394C73.7289 36.2255 74.0755 36.4983 74.4057 36.4968C74.4466 36.5678 74.5081 36.6742 74.549 36.7451C74.4456 37.4669 74.5154 38.3251 74.6138 38.7412C74.6397 38.8681 74.6917 39.1218 74.7791 39.3551C74.8105 39.5734 74.842 39.7917 74.8939 40.0454C74.9403 40.2078 75.0222 40.3496 75.1546 40.4151C75.2625 40.6838 75.4618 40.9471 75.6201 41.1394C75.7335 41.4996 76.0951 41.7164 76.4852 41.4912C76.5562 41.4502 76.6271 41.4093 76.698 41.3683C76.8099 41.3983 76.8659 41.4133 76.9778 41.4433C77.1825 41.7979 77.3873 42.1526 77.6275 42.4868C77.9417 43.4404 77.9161 44.5428 78.2861 45.5114C78.3121 45.6383 78.3735 45.7447 78.435 45.8511C78.2536 46.1923 78.0313 46.4625 77.7735 46.7532C77.3739 47.1258 77.6865 47.7492 78.1491 47.8132C78.1341 47.8691 78.1191 47.9251 78.1041 47.981C78.0771 48.7533 78.05 49.5255 78.0025 50.2623C77.7981 51.1369 77.6852 52.0061 77.6281 52.8902C77.5272 53.0431 77.5232 53.2818 77.5901 53.4796C77.5806 53.627 77.6066 53.7539 77.5971 53.9012C77.5631 54.2519 77.5086 54.5671 77.4541 54.8823C77.3492 55.2739 77.2238 55.63 77.1748 56.0366C76.0947 57.606 73.7682 61.03 74.335 62.8308C73.3828 63.4751 72.7788 64.7223 72.505 65.9681C72.3741 66.2328 72.2282 66.5535 72.1178 66.8537L72.1028 66.9096C71.5313 67.4761 70.9503 68.1898 70.4607 68.8981C70.192 69.006 69.9846 69.2202 69.7419 69.455C68.8252 70.0788 68.0793 71.4079 67.6471 72.4614C67.5053 72.5433 67.3634 72.6252 67.2065 72.7631C67.0237 72.774 66.8669 72.9119 66.7659 73.0647C66.5886 73.1671 66.4317 73.305 66.2394 73.4633C65.2613 73.9807 64.0869 74.8952 63.5019 75.8477C63.2521 75.6609 62.9069 75.7183 62.6996 75.9326C61.9329 75.997 60.9398 76.5703 60.5756 76.9225C60.4542 77.0398 60.2974 77.1777 60.146 77.4069C59.1269 77.8534 58.2062 78.716 58.1138 79.6206C58.1138 79.6206 58.1138 79.6206 58.0578 79.6056C57.9964 79.4992 57.8995 79.4133 57.8026 79.3274C57.7861 79.0532 57.6278 78.8608 57.404 78.8009C57.2457 78.6085 56.9959 78.4217 56.6957 78.3113C56.3955 78.2009 56.1827 78.3237 56.0668 78.5325C55.925 78.6144 55.7831 78.6963 55.7027 78.8846C55.6058 78.7987 55.5293 78.7483 55.4529 78.6978C55.1268 78.4605 54.6657 78.7267 54.5403 79.0828C54.4953 79.2507 54.4299 79.383 54.4203 79.5304C54.0192 79.5728 53.6236 79.7067 53.3099 79.9824C53.0002 80.0193 52.681 80.2036 52.4587 80.4738C52.2499 80.3579 52.0466 80.3334 51.8133 80.4208C51.6005 80.5437 51.4232 80.6461 51.3222 80.7989C50.8692 80.5876 50.3986 81.0011 50.467 81.5291C50.4165 81.6055 50.4016 81.6615 50.3511 81.7379C49.7112 81.7763 49.1437 82.1039 48.8055 82.583C48.6936 82.553 48.6022 82.5585 48.4903 82.5285C48.358 82.463 48.2666 82.4685 48.1397 82.4945C47.9569 82.5055 47.7536 82.481 47.5912 82.5274C47.1382 82.3161 46.6197 82.2371 46.1886 82.3914C46.2171 81.9493 45.7586 81.6466 45.4134 81.704C45.3669 81.5417 45.3055 81.4353 45.2236 81.2934C45.1007 81.0806 44.8565 80.9852 44.6382 81.0166C44.1497 80.8258 43.5658 80.8792 43.0188 81.2423C42.8414 81.3446 42.6846 81.4825 42.5482 81.6558C42.5482 81.6558 42.5277 81.6203 42.4922 81.6408C42.0187 81.394 41.6081 81.5838 41.2794 81.9155C41.2234 81.9005 41.132 81.906 41.0761 81.891C41.0351 81.82 40.9587 81.7696 40.8823 81.7191C40.8768 81.6277 40.8358 81.5568 40.7744 81.4504C40.3853 80.7765 39.6336 80.7849 39.0511 81.1685C38.9747 81.118 38.8983 81.0676 38.8068 81.0731C38.2829 80.9027 37.9227 81.016 37.6445 81.2713C37.1914 81.0599 36.8258 81.0819 36.5475 81.3371C36.3183 81.1857 36.059 81.1463 35.8612 81.2132C35.591 80.9909 35.2553 80.9009 34.9306 80.9938C34.7873 80.7455 34.5021 80.5792 34.1978 80.7075C34.0666 79.7429 33.6365 78.9981 32.6829 79.3122C32.4387 79.2168 32.2354 79.1923 32.0526 79.2033C31.9407 79.1733 31.8642 79.1229 31.7524 79.0929C31.3458 79.0439 31.0211 79.1368 30.6869 79.377C30.6309 79.362 30.575 79.347 30.4836 79.3525C30.1984 79.1861 29.9991 78.9229 29.7998 78.6596C29.5595 78.3254 29.037 78.4852 28.8557 78.8264C28.8133 78.4253 28.4052 78.0461 27.9646 78.3478C27.7518 78.4706 27.539 78.5935 27.3262 78.7164L27.3616 78.6959C27.6494 78.2933 27.1485 77.5894 26.6669 77.8202C26.0939 78.0564 25.5005 78.2571 24.8866 78.4224C24.6328 78.4744 24.3791 78.5263 24.1403 78.5223C24.0843 78.5073 24.0489 78.5278 23.9929 78.5128C23.9575 78.5332 23.8456 78.5033 23.7337 78.4733C23.6927 78.4024 23.7077 78.3464 23.6668 78.2755C23.5739 77.9508 23.6284 77.6356 23.4645 77.3518C23.3826 77.21 23.2653 77.0886 23.1479 76.9672C23.2188 76.9262 23.2897 76.8853 23.3047 76.8293C23.3907 76.7324 23.4411 76.656 23.4711 76.5441C23.5775 76.4827 23.6634 76.3858 23.7698 76.3244C24.2609 75.9463 23.734 75.1155 23.176 75.2958C22.4202 75.543 21.629 75.8107 20.8267 75.8955C20.8267 75.8955 20.7913 75.916 20.7708 75.8805C20.532 75.8765 20.3082 75.8166 20.0695 75.8126C20.049 75.7771 20.0135 75.7976 19.993 75.7621C19.57 75.4389 19.3952 74.9723 19.129 74.5112C19.1235 74.4198 19.1535 74.3079 19.1125 74.237C19.1835 74.196 19.2544 74.1551 19.3253 74.1141C20.0142 73.6691 19.4259 72.732 18.711 73.0501C18.6756 73.0706 18.6046 73.1115 18.5337 73.1525C18.4218 73.1225 18.2594 73.169 18.1176 73.2509C18.0466 73.2918 17.9402 73.3533 17.8693 73.3942C17.3058 73.4831 16.681 73.4655 16.2634 73.2337C16.187 73.1833 16.1255 73.0769 16.0846 73.0059C15.7624 72.5299 15.9328 72.0059 16.1591 71.4969C16.3719 71.374 16.5697 71.3071 16.7471 71.2047C17.3146 70.8771 16.939 69.8171 16.2951 70.0943C16.0264 70.2021 15.7576 70.31 15.4684 70.3824C15.4424 70.2555 15.3251 70.1341 15.1722 70.0332C15.1517 69.9978 15.1313 69.9623 15.0548 69.9118C14.7232 69.5831 14.3765 69.3104 14.0449 68.9817C14.3341 68.9093 14.5879 68.8573 14.8566 68.7495C15.3941 68.5337 15.1824 67.7574 14.7144 67.6021C14.6025 67.5721 14.4906 67.5421 14.3787 67.5121C14.3472 67.2938 14.1534 67.122 13.9297 67.062C13.6949 66.8192 13.3388 66.6938 13.0251 66.9695C12.9037 67.0869 12.7263 67.1893 12.5845 67.2712C12.6634 66.7527 11.8133 66.345 11.4246 66.9004C11.3891 66.9209 11.3742 66.9769 11.3592 67.0328C10.9621 66.8365 10.58 66.5842 10.3042 66.2705C10.064 65.9363 9.84425 65.6375 9.71042 65.2419C9.80183 65.2364 9.87276 65.1955 9.96417 65.19C10.3653 65.1476 10.7254 65.0342 10.9532 64.8554C11.3229 64.5947 11.3159 64.1731 11.0607 63.8948C11.4304 63.6341 11.4984 62.9328 10.9035 62.8034C9.91694 62.569 8.09125 62.1098 8.4715 60.8026C8.71027 60.8066 8.9845 60.7902 9.22327 60.7942C9.37063 60.8037 9.4975 60.7777 9.58892 60.7722C10.3557 60.7079 10.3812 59.6054 9.67993 59.5374C9.67993 59.5374 9.65946 59.502 9.69492 59.4815C9.75087 59.4965 9.78634 59.476 9.84228 59.491C10.5586 59.503 10.6606 58.4511 9.98924 58.2712C9.70952 58.1962 9.47075 58.1922 9.21151 58.1527C8.56065 58.0083 7.78693 57.6511 7.28196 57.186C7.23552 57.0237 7.24502 56.8763 7.23405 56.6935C7.32546 56.688 7.3964 56.647 7.46733 56.6061C8.02531 56.4258 7.98141 55.6945 7.65525 55.4572C7.68523 55.3453 7.71521 55.2334 7.68924 55.1066C7.8461 54.9687 7.92654 54.7804 7.85414 54.4912C7.57148 53.7559 7.35975 52.9796 7.1685 52.2388C7.16703 51.9086 7.25697 51.5729 7.34691 51.2373C7.52826 50.8961 7.70962 50.555 7.89097 50.2138C8.26867 49.4756 7.28616 49.0024 6.82655 49.5988C6.81156 49.6548 6.74063 49.6957 6.72564 49.7517C6.70516 49.7162 6.70516 49.7162 6.68468 49.6807C6.74465 49.457 6.78413 49.1977 6.78815 48.9589C6.7757 48.4459 6.11387 48.1187 5.7347 48.5268C5.7347 48.5268 5.7347 48.5268 5.69924 48.5472C5.65828 48.4763 5.6528 48.3849 5.61184 48.314C5.70178 47.9783 5.79173 47.6426 5.85717 47.5103C6.17344 46.6656 6.69849 45.9369 7.37639 45.309C7.74057 44.9569 7.46339 44.313 7.05679 44.264C7.28312 43.755 7.18876 43.1002 7.17632 42.5871C7.13242 41.8559 7.17445 41.0277 6.94774 40.3073C6.78794 39.7848 6.44678 39.6035 6.08113 39.6254C6.29796 39.2638 6.45883 38.8872 6.44237 38.6129C6.41494 38.1559 6.21017 37.8012 5.86353 37.5284C6.08691 36.3591 6.90922 35.0804 7.40831 34.2248C7.50923 34.0719 7.51873 33.9246 7.47229 33.7622C7.59917 33.7363 7.74104 33.6544 7.86792 33.6284C8.62371 33.3812 8.33409 32.2243 7.55782 32.436C5.34091 33.1012 2.79824 34.7584 2.13318 37.1285C1.60303 38.9952 2.79432 39.5842 4.23644 39.4609C3.30625 40.4709 2.39801 41.8465 2.37793 43.0403C2.36039 43.6652 2.59662 44.2382 3.0961 44.6118C3.36632 44.8341 3.73745 44.9036 4.07312 44.9936C4.14954 45.044 4.22596 45.0945 4.31737 45.089C4.37332 45.104 4.3938 45.1394 4.47022 45.1899C3.3722 46.1549 2.59633 47.5959 2.58722 48.9726C2.6026 50.1459 3.26737 51.1335 4.22392 51.4798C3.97711 51.9533 3.80673 52.4773 3.74824 53.0312C3.7022 54.0982 4.22363 54.8375 4.83647 55.5714C4.62915 55.7856 4.46279 56.0708 4.38784 56.3506C4.05109 57.1598 4.06648 58.3331 4.3901 59.1394C4.72469 60.1284 5.53936 60.5566 6.42898 60.705C6.03228 61.738 5.94126 62.9728 6.29084 63.9059C6.57899 64.7326 7.33772 65.1458 8.15093 65.2438C8.11693 65.5944 8.13888 65.9601 8.25224 66.3202C8.2782 66.4471 8.33963 66.5535 8.34512 66.6449C8.49943 67.076 8.74516 67.5016 9.07681 67.8303L9.09728 67.8658C9.21466 67.9872 9.33204 68.1086 9.48488 68.2095C9.81104 68.4468 10.1522 68.6282 10.5288 68.789C10.5782 69.6117 10.6685 70.5054 11.1995 71.0974C11.3019 71.2747 11.4192 71.3961 11.5571 71.5529C12.159 72.104 12.9572 72.2579 13.7594 72.173C13.8552 73.1581 14.2607 74.1062 15.0809 74.6258C15.6159 74.979 16.2258 75.0525 16.8806 74.9581C16.6258 75.9092 16.8745 76.9951 17.6496 77.6825C18.0168 77.9908 18.4289 78.1312 18.8914 78.1951C19.5123 78.4514 20.2231 78.3721 20.8725 78.1863L20.908 78.1658C21.0213 78.526 21.3175 78.8752 21.6791 79.092C21.9113 79.9037 22.5037 80.6021 23.4807 80.9838C23.9692 81.1747 24.9093 81.2467 25.762 81.0854C25.8139 81.3392 25.9423 81.6434 26.0501 81.9122C26.1745 82.4551 26.4612 82.9517 26.8897 83.3663C26.9307 83.4372 26.9716 83.5082 27.0126 83.5791C27.4726 84.212 28.1958 84.6457 28.9381 84.7846C30.57 85.072 31.8973 84.2584 32.9284 83.0956C32.9408 83.6086 33.1361 84.1106 33.6356 84.4843C33.9522 84.869 34.4312 85.2072 35.0876 85.443C36.4207 85.9501 37.6036 85.7874 38.5817 85.27C38.9258 86.1117 39.8169 86.5903 41.1731 86.5639C42.8949 86.5156 44.431 85.8179 45.3297 84.5897C46.7112 86.8187 49.7358 86.1601 51.3139 84.6342C52.0346 85.6368 52.8398 86.2123 54.1346 86.0795C55.4853 85.9618 56.7976 85.2041 57.6159 84.1642C57.9541 83.6852 58.2908 82.876 58.4242 82.0423C59.696 82.443 61.4014 82.1205 62.4544 81.3233C63.0519 80.8838 63.476 80.3079 63.6559 79.6366C63.8577 79.3309 64.0595 79.0252 64.1495 78.6895C64.6475 78.733 65.211 78.6442 65.8044 78.4434C66.1701 78.4215 66.5302 78.3081 66.8699 78.1593C67.7116 77.8152 68.425 77.1669 68.8736 76.3877C69.1204 75.9142 69.3058 75.3342 69.3643 74.7803C69.8718 74.6764 70.4652 74.4757 70.9468 74.2449C71.3069 74.1316 71.6261 73.9473 71.9808 73.7425L72.0163 73.722C72.4978 73.4913 72.8825 73.1746 73.2617 72.7666C73.9546 72.0828 74.3118 71.3091 74.3948 70.5518C74.4792 70.1247 74.4368 69.7236 74.3384 69.3075C74.7136 69.1382 75.1037 68.913 75.4324 68.5813C76.3396 68.1049 77.1239 67.4156 77.6939 66.519C78.2939 65.5105 78.2595 64.6319 77.8295 63.8871C77.8035 63.7602 77.7571 63.5978 77.7311 63.471C77.8375 63.4095 77.9085 63.3686 78.0353 63.3426C79.5524 62.9396 80.8577 61.7604 81.257 60.1585C81.317 59.9347 81.3415 59.7314 81.3305 59.5486C81.355 59.3453 81.3795 59.142 81.348 58.9237C81.2851 58.4871 81.1008 58.1679 80.7392 57.9511C81.8412 56.7473 82.9568 55.1575 82.7476 53.8123C82.6957 53.5585 82.5878 53.2898 82.4295 53.0974C82.6163 52.8477 82.5944 52.482 82.2327 52.2652C82.0239 52.1493 81.8356 52.0689 81.6473 51.9884C82.0605 51.2297 82.2239 50.2841 82.1186 49.4464C82.0502 48.9184 81.9109 48.4314 81.6856 48.0413C81.317 47.4029 80.7916 46.9023 80.0084 46.6924C80.8581 45.8708 81.3667 44.8678 81.4058 43.3793C81.461 40.9356 80.3841 39.8076 78.6099 38.3729C78.6794 38.0017 78.6929 37.6156 78.671 37.25C78.6366 36.3713 78.2121 35.7179 77.5393 35.2079C77.2131 34.9706 76.79 34.6473 76.3724 34.4155C76.3874 34.3596 76.4229 34.3391 76.4379 34.2832C76.7242 33.5504 76.7307 32.7427 76.4835 31.9869C76.0875 30.8914 75.1295 30.215 74.0571 30.0775C74.3174 29.2179 74.2515 28.1209 73.9989 27.2737C73.7871 26.4975 73.3216 25.7731 72.5684 25.4514C72.3596 25.3355 72.1004 25.296 71.9176 25.307C72.8123 24.3175 73.3413 23.35 72.3654 22.0691ZM80.1721 42.3891C80.1052 42.1913 80.0382 41.9935 79.9563 41.8516C79.9304 41.7247 79.9044 41.5979 79.8784 41.471C80.0218 41.7192 80.1147 42.0439 80.1721 42.3891ZM70.3401 24.7044C70.3197 24.6689 70.2842 24.6894 70.2637 24.654C70.2992 24.6335 70.2992 24.6335 70.3551 24.6485C70.3551 24.6485 70.3756 24.6839 70.3401 24.7044Z" fill="#D6E2F9"/>
<path d="M43.5184 11.0119C40.7292 9.78484 38.2552 8.61227 35.379 8.38124C35.0879 6.89416 34.4517 5.46449 33.8728 4.37999C32.5718 1.96272 30.8152 -0.0969308 28.3519 2.27106C25.924 4.61858 24.2209 7.72991 23.0717 10.8997C22.8739 10.9667 22.6611 11.0895 22.5247 11.2628C22.4893 11.2833 22.5097 11.3188 22.4743 11.3393C19.2814 10.7236 15.113 10.0564 12.4245 12.0342C9.62949 14.0735 12.0019 17.5274 13.813 19.2718C14.5118 19.9088 15.3019 20.5402 16.1371 21.0039C15.0285 23.0153 13.9963 25.0772 12.8672 27.0532C12.4691 27.756 13.5689 28.3505 13.9317 27.6682C15.0403 25.6567 16.1079 23.5744 17.2315 21.507C18.7325 22.0591 20.3684 22.1076 21.9549 21.3335C22.6847 20.9595 23.2058 20.4695 23.6094 19.8581C23.9989 21.7613 24.784 23.5306 26.1406 24.7336C26.722 25.2491 27.5867 24.3716 27.0053 23.856C25.358 22.3953 24.6614 19.9601 24.5133 17.492C24.7666 16.2107 24.7553 14.7986 24.7139 13.4984C24.9322 13.4669 25.1355 13.4914 25.3183 13.4804C25.9597 13.7722 26.5861 14.1199 27.1674 14.6355C28.1514 15.4388 29.0999 16.2626 30.1998 16.8571C32.8172 18.2779 35.8667 18.6453 38.3081 20.4987C38.925 20.9938 39.7897 20.1162 39.1729 19.6212C36.8078 17.8182 33.9916 17.3634 31.3443 16.0545C30.0411 15.4354 28.9752 14.4903 27.8589 13.6215C28.8754 13.744 29.9123 13.9019 30.9493 14.0599C32.2251 14.2218 33.6167 14.175 34.5264 13.1296C35.3857 12.1606 35.6036 10.8998 35.5213 9.52864C38.1232 9.77613 40.4499 10.9392 42.8625 12.0054C43.6362 12.3626 44.2512 11.2982 43.5184 11.0119ZM29.4013 2.942C31.5798 1.63695 32.9821 5.13069 33.4805 6.4035C33.7372 7.01193 33.923 7.66132 34.0733 8.33118C33.7991 8.34764 33.5043 8.32863 33.1946 8.36557C30.1276 8.62306 26.8832 8.98293 24.387 10.8025C25.07 9.03672 25.9413 7.35143 27.0568 5.76157C27.6118 4.92093 28.4996 3.50987 29.4013 2.942ZM15.1268 18.8444C14.2751 18.1065 13.3976 17.2418 12.8802 16.2637C11.7634 14.1656 13.2706 12.6807 15.3006 12.2653C17.4576 11.8239 19.6584 12.1138 21.8293 12.5156C19.853 14.7442 18.2084 17.3016 16.7521 19.9394C16.1257 19.5917 15.5908 19.2385 15.1268 18.8444ZM22.6759 18.9784C21.5359 20.7715 19.6217 20.9782 17.8615 20.3866C19.2523 17.8811 20.796 15.4766 22.6714 13.4008C22.9007 13.5522 23.1449 13.6476 23.4042 13.6871C23.2722 14.8509 23.2221 16.1567 23.284 17.4924C23.1341 18.0518 22.9432 18.5403 22.6759 18.9784ZM34.2295 10.3218C34.1289 11.7039 33.8441 12.7669 31.8386 12.979C31.1632 13.0379 30.3036 12.7775 29.6527 12.6331C28.3005 12.4207 26.9893 12.2792 25.6331 12.3056C25.3889 12.2102 25.1801 12.0943 24.9154 11.9634C27.4061 10.0524 30.8183 9.73754 33.9263 9.55098C34.0177 9.5455 34.1446 9.51953 34.2565 9.54951C34.2525 9.78828 34.269 10.0625 34.2295 10.3218Z" fill="#E9C9E7"/>
<g filter="url(#filter0_i)">
<path d="M13.9518 26.4744C16.8979 27.5636 17.6256 33.5749 20.6544 37.2646C24.771 42.2651 32.3187 42.0689 32.8671 42.036C38.5961 41.8022 44.0361 38.2831 46.6446 33.1358C48.9912 28.518 48.9702 22.6661 46.6808 18.455C44.6576 14.705 41.1137 12.826 41.8211 10.857C42.2928 9.54428 44.3229 9.12885 45.0132 9.01402C50.9261 7.87014 61.0338 13.3367 67.9799 21.7636C70.0381 24.2639 85.2788 42.7982 76.4931 62.7197C69.0149 79.6636 50.5095 83.1596 48.7482 83.4672C47.5858 83.6654 28.5495 86.5694 14.867 72.2901C4.96098 61.9308 4.55044 49.5887 4.37956 44.2963C4.37956 44.2963 4.04583 33.234 9.08141 27.8677C10.4262 26.4292 11.9188 26.2295 11.9188 26.2295C11.9188 26.2295 12.9039 26.1337 13.9518 26.4744Z" fill="#D5ECFA"/>
</g>
<path d="M44.4237 49.848L44.4237 49.848L44.4275 49.8506L48.748 52.7471L48.748 52.7471L48.751 52.7491C49.2545 53.0815 49.9001 53.1855 50.4915 52.9122L50.5321 52.8934L50.5688 52.8677L55.0945 49.6937C55.7772 49.4603 56.4142 50.0855 56.2211 50.7386L56.2135 50.7644L56.2087 50.7908L55.0667 57.0609C54.9178 57.6411 55.0235 58.2769 55.4322 58.7599C55.4327 58.7604 55.4331 58.7609 55.4335 58.7614L58.7917 62.7771L58.7917 62.7771L58.795 62.781C59.2405 63.3028 58.891 64.168 58.1321 64.2016C58.1321 64.2016 58.132 64.2016 58.132 64.2016L52.9169 64.4229L52.9169 64.4228L52.9081 64.4233C52.294 64.4602 51.7603 64.7683 51.4213 65.2817L51.4213 65.2817L51.4166 65.2891L48.6173 69.6949C48.2249 70.3103 47.3203 70.2155 47.0514 69.5473L45.2552 64.6379C45.255 64.6372 45.2548 64.6366 45.2546 64.636C45.0381 64.0333 44.5308 63.6211 43.9449 63.4641L43.9119 63.4553L43.8779 63.451L39.2681 62.871C38.6091 62.6927 38.4036 61.8065 38.9905 61.3459L39.0202 61.3225L39.0461 61.295L42.7187 57.3864C43.1576 57.0039 43.4272 56.4687 43.3897 55.8444L43.3897 55.8444L43.3895 55.8409L43.0417 50.6572C43.0119 49.8952 43.8473 49.4539 44.4237 49.848Z" fill="#E9C9E7" stroke="#EEF4FF"/>
<path opacity="0.2" d="M67.9799 21.7635C64.696 17.7956 60.7341 14.4555 56.8176 12.1769C56.6841 13.0105 56.8454 13.8632 57.1895 14.7049C60.2125 21.661 66.0538 27.2735 68.4329 34.5067C69.5146 37.8546 69.82 41.4141 69.9725 44.8728C70.1441 48.0367 70.1383 51.3031 69.5936 54.455C68.3991 61.1504 64.7742 66.1752 59.5814 70.4501C56.9952 72.6053 54.2247 74.4413 51.4597 76.3687C48.7657 78.2551 44.665 80.2443 44.2541 83.7918C46.7836 83.7501 48.4181 83.4685 48.7278 83.4316C50.4891 83.124 68.9945 79.628 76.4727 62.6841C85.2788 42.7981 70.0587 24.2992 67.9799 21.7635Z" fill="#C2D1EF"/>
<path d="M12.8418 28.1555C13.0956 28.1036 13.2224 28.0776 13.2224 28.0776C13.2224 28.0776 13.3398 28.199 13.5336 28.3709" stroke="#FFF4E9" stroke-linecap="round" stroke-linejoin="round"/>
<path d="M15.3007 29.3841C17.5729 30.8624 17.8132 35.7836 20.5048 39.0532C24.3866 43.8109 33.288 44.1573 33.8365 44.1244C39.2707 43.8716 46.1455 38.5783 48.623 33.6958C50.8183 29.3072 50.8258 23.0133 48.6593 19.015C46.7234 15.4983 42.9722 13.8336 43.6497 11.9764C44.1064 10.7197 44.9455 10.9445 45.6154 10.7942C51.2391 9.72276 60.7764 14.8566 67.3293 22.8484C69.2702 25.2273 83.6987 42.7645 75.3807 61.612C68.2897 77.6703 50.7993 80.9586 49.1294 81.2607C48.0025 81.4384 30.0222 84.2057 17.0644 70.6902C7.68388 60.8315 7.33222 49.1647 7.14234 44.1671C7.14234 44.1671 5.96181 34.5868 10.7601 29.5466C11.1747 29.118 11.5594 28.8014 11.9141 28.5966" stroke="white" stroke-linecap="round" stroke-linejoin="round" stroke-dasharray="2 2"/>
</g>
</g>
<defs>
<filter id="filter0_i" x="-6.84229" y="0.245483" width="98.5355" height="101.625" filterUnits="userSpaceOnUse" color-interpolation-filters="sRGB">
<feFlood flood-opacity="0" result="BackgroundImageFix"/>
<feBlend mode="normal" in="SourceGraphic" in2="BackgroundImageFix" result="shape"/>
<feColorMatrix in="SourceAlpha" type="matrix" values="0 0 0 0 0 0 0 0 0 0 0 0 0 0 0 0 0 0 127 0" result="hardAlpha"/>
<feOffset dy="4"/>
<feGaussianBlur stdDeviation="11.5"/>
<feComposite in2="hardAlpha" operator="arithmetic" k2="-1" k3="1"/>
<feColorMatrix type="matrix" values="0 0 0 0 1 0 0 0 0 1 0 0 0 0 1 0 0 0 0.72 0"/>
<feBlend mode="normal" in2="shape" result="effect1_innerShadow"/>
</filter>
<clipPath id="clip0">
<rect width="85" height="89" fill="white"/>
</clipPath>
<clipPath id="clip1">
<rect width="78.2225" height="86.1676" fill="white" transform="translate(-15 27.1113) rotate(-30)"/>
</clipPath>
</defs>
</svg>
