<svg width="75" height="61" viewBox="0 0 75 61" fill="none" xmlns="http://www.w3.org/2000/svg">
<path d="M56.3245 56.1043L56.5271 55.994C65.0269 51.3716 61.527 50.3444 68.5268 43.6676C75.5266 36.9907 75.5266 28.2595 74.5267 20.5555C73.5267 12.8514 52.0272 0.524995 37.0276 0.0113923C22.0279 -0.50221 0.528474 16.4467 0.0284859 31.3411C-0.471502 46.2356 5.52835 53.9396 24.5279 58.5621C43.3759 63.1476 47.9547 60.657 56.3245 56.1043Z" fill="#FEDAE6"/>
</svg>
