<svg width="125" height="99" viewBox="0 0 125 99" fill="none" xmlns="http://www.w3.org/2000/svg">
<rect x="41.9834" y="36.5337" width="7.69526" height="36.5525" rx="3.84763" transform="rotate(51.913 41.9834 36.5337)" fill="#5C75D6"/>
<rect x="15.9297" y="38.6211" width="7.69526" height="25.962" rx="3.84763" transform="rotate(6.91298 15.9297 38.6211)" fill="#5C75D6"/>
<rect width="7.69526" height="25.962" rx="3.84763" transform="matrix(0.120362 -0.99273 -0.99273 -0.120362 38.918 67.9521)" fill="#5C75D6"/>
<circle cx="57.8207" cy="30.2319" r="17.162" transform="rotate(51.913 57.8207 30.2319)" stroke="#5C75D6" stroke-width="8"/>
<rect x="83.2334" y="58.6465" width="7.69526" height="36.5525" rx="3.84763" transform="rotate(-30 83.2334 58.6465)" fill="#FFBDD6"/>
<rect width="7.69526" height="25.962" rx="3.84763" transform="matrix(-0.469249 -0.883066 -0.883066 0.469249 111.07 71.5225)" fill="#FFBDD6"/>
<circle cx="79.2222" cy="42.0798" r="17.162" transform="rotate(-30 79.2222 42.0798)" stroke="#FFBDD6" stroke-width="8"/>
<path fill-rule="evenodd" clip-rule="evenodd" d="M68.5355 37.468C71.5773 33.2124 71.8234 27.4658 69.0432 22.9419L76.4862 19.8421C80.6381 27.5906 79.5538 37.232 73.6498 43.8683L68.5355 37.468Z" fill="#5C75D6"/>
</svg>
