<svg width="16" height="17" viewBox="0 0 16 17" fill="none" xmlns="http://www.w3.org/2000/svg">
<path d="M7.29289 16.1808C7.68342 16.5713 8.31658 16.5713 8.70711 16.1808L15.0711 9.81683C15.4616 9.42631 15.4616 8.79314 15.0711 8.40262C14.6805 8.01209 14.0474 8.01209 13.6569 8.40262L8 14.0595L2.34315 8.40262C1.95262 8.01209 1.31946 8.01209 0.928932 8.40262C0.538408 8.79314 0.538407 9.42631 0.928932 9.81683L7.29289 16.1808ZM7 -4.37114e-08L7 15.4737L9 15.4737L9 4.37114e-08L7 -4.37114e-08Z" fill="#DE0052"/>
</svg>
