<svg width="16" height="16" viewBox="0 0 16 16" fill="none" xmlns="http://www.w3.org/2000/svg">
<circle cx="8" cy="8" r="8" fill="white"/>
<line x1="7" y1="4" x2="7" y2="9" stroke="#E23D71" stroke-width="2" stroke-linecap="round" stroke-linejoin="round"/>
<line x1="10" y1="9" x2="7" y2="9" stroke="#E23D71" stroke-width="2" stroke-linecap="round" stroke-linejoin="round"/>
</svg>
