<svg width="103" height="105" viewBox="0 0 103 105" fill="none" xmlns="http://www.w3.org/2000/svg">
<g clip-path="url(#clip0)">
<path d="M55.9477 104.284C81.4168 104.284 102.064 83.2364 102.064 57.2727C102.064 31.3091 81.4168 10.2614 55.9477 10.2614C30.4786 10.2614 9.83179 31.3091 9.83179 57.2727C9.83179 83.2364 30.4786 104.284 55.9477 104.284Z" fill="#F9E5E9"/>
<path d="M63.0545 20.5752C61.0226 17.9263 56.617 18.1602 54.4961 20.5657C52.1037 23.2861 52.8622 27.7582 55.5729 29.9632C58.6068 32.4307 63.1715 31.7577 65.8449 29.0563C68.6305 26.2404 69.2673 21.8304 68.1389 18.1077C65.8495 10.562 58.3071 5.86088 50.9473 4.9302C43.5875 3.99952 36.2089 7.08747 30.9794 12.3136C25.3144 17.9741 22.435 25.997 22.2618 34.0009C22.2384 35.0127 22.2665 36.0197 22.332 37.0316C22.3789 37.8047 22.9407 38.4634 23.7366 38.4634C24.4576 38.4634 25.1926 37.8095 25.1411 37.0316C24.6964 30.0491 26.3584 22.9282 30.4597 17.2438C34.074 12.242 39.828 8.5002 45.8582 7.76997C51.9399 7.03497 58.3493 9.15407 62.5161 13.8457C64.6416 16.2416 66.1773 19.4154 65.8261 22.7182C65.5218 25.5818 63.6069 28.1829 60.7136 28.6077C60.1752 28.6888 59.412 28.6507 58.8596 28.5075C58.5693 28.4311 58.2978 28.3404 58.0918 28.2354C57.7874 28.0827 57.4738 27.8775 57.3286 27.7438C56.411 26.9277 55.8913 25.7822 55.8632 24.675C55.8492 24.0736 55.9381 23.5295 56.1769 23.0904C56.2471 22.9568 56.322 22.8232 56.4063 22.6991C56.4063 22.6991 56.5468 22.5129 56.4672 22.6179C56.3735 22.7325 56.5655 22.5177 56.5842 22.4938C56.8698 22.2075 56.8558 22.217 57.1133 22.0547C57.2537 21.9688 57.3942 21.8877 57.544 21.8161C57.6891 21.7445 57.558 21.8066 57.5299 21.8209C57.5955 21.7922 57.661 21.7684 57.7266 21.7493C57.8811 21.6968 58.0403 21.6491 58.1994 21.6157C58.2697 21.6013 58.3352 21.587 58.4054 21.5727C58.6349 21.525 58.2182 21.587 58.4476 21.5632C58.7519 21.5393 59.0515 21.5345 59.3559 21.5632C59.1311 21.5441 59.4589 21.5822 59.5291 21.6013C59.707 21.6395 59.8849 21.692 60.0534 21.7588C59.8568 21.6872 60.1564 21.8066 60.2126 21.84C60.3344 21.9068 60.4467 21.9784 60.5591 22.0547C60.3905 21.9354 60.6995 22.1836 60.7464 22.2313C60.8634 22.3507 60.9664 22.4747 61.0647 22.6036C61.5329 23.2145 62.5629 23.1047 63.0498 22.6036C63.6444 22.0022 63.5227 21.1909 63.0545 20.5752Z" fill="#DE0052"/>
<path d="M28.6341 35.2418C25.2772 35.3373 22.3558 37.6425 21.1572 40.7973C19.9821 43.8948 21.1104 47.4886 23.5543 49.5934C24.9963 50.8391 26.738 51.5884 28.6388 51.6409C30.446 51.6886 30.446 48.825 28.6388 48.7773C25.9795 48.7057 23.4888 46.1809 23.4841 43.4413C23.4841 40.7018 25.9701 38.177 28.6341 38.1007C30.4366 38.0529 30.4413 35.1893 28.6341 35.2418Z" fill="#DE0052"/>
<path d="M27.0605 49.097C26.4285 53.2493 27.2899 57.6211 29.7432 61.0479C32.0326 64.2409 35.4129 66.5461 39.2192 67.367C39.9589 67.5245 40.7361 67.1427 40.9468 66.3648C41.1388 65.6536 40.7127 64.7659 39.9636 64.6036C36.8923 63.9402 34.0458 62.1934 32.1637 59.6018C30.1646 56.8479 29.2469 53.2493 29.7666 49.8559C29.8837 49.0923 29.5747 48.3143 28.7834 48.0948C28.1233 47.9086 27.1776 48.3286 27.0605 49.097Z" fill="#DE0052"/>
<path d="M28.395 52.6384C24.0128 52.2661 19.537 52.8006 15.3608 54.1943C13.268 54.8959 11.2221 55.8027 9.30252 56.9099C7.57961 57.9074 5.87074 59.1054 4.60197 60.6804C3.29106 62.3031 2.42961 64.2552 2.4577 66.3886C2.48111 68.4218 3.25829 70.4168 4.42406 72.049C6.87265 75.4663 10.6743 77.6522 14.6726 78.6306C19.2514 79.7522 24.0502 79.3036 28.3481 77.3515C29.0411 77.0365 29.2049 76.0056 28.8538 75.3947C28.4371 74.6693 27.6271 74.5643 26.9342 74.8793C20.7636 77.6809 12.3082 76.6499 7.57961 71.4715C6.47002 70.2545 5.60856 68.794 5.32765 67.1522C5.07952 65.6679 5.55238 64.1072 6.48874 62.8377C7.44852 61.5347 8.83433 60.5134 10.2155 59.6781C11.8401 58.6949 13.5536 57.8693 15.3327 57.2202C19.5276 55.6977 23.9613 55.1154 28.395 55.4924C29.1534 55.5593 29.7995 54.7861 29.7995 54.0606C29.7995 53.2397 29.1534 52.7004 28.395 52.6384Z" fill="#DE0052"/>
<path d="M26.2927 74.1586C25.4874 77.6618 27.0277 81.4084 29.9773 83.37C32.9643 85.3554 37.2107 85.0882 40.0525 82.95C43.0489 80.6973 44.4441 76.8552 43.8916 73.1373C43.3672 69.6198 40.8297 66.508 37.5384 65.3482C33.8959 64.0643 29.5044 65.6918 27.5942 69.1139C28.465 69.3525 29.3405 69.5959 30.2113 69.8346C30.2394 69.4671 30.2675 69.0995 30.2956 68.732C30.3565 67.9589 29.6074 67.3002 28.8911 67.3002C28.0811 67.3002 27.5474 67.9589 27.4865 68.732C27.4584 69.0995 27.4303 69.4671 27.4023 69.8346C27.2899 71.2807 29.3593 71.7389 30.0194 70.5552C31.1571 68.5173 33.6806 67.4291 35.8248 67.8396C38.2687 68.3073 40.2164 70.3118 40.9187 72.6982C41.6397 75.1418 41.0404 77.9864 39.2613 79.8668C37.4728 81.752 34.6123 82.382 32.2667 81.375C29.8368 80.3345 28.4276 77.3898 28.9988 74.908C29.172 74.1539 28.7693 73.3568 28.0156 73.1468C27.3086 72.9607 26.4659 73.4045 26.2927 74.1586Z" fill="#DE0052"/>
<path d="M30.4082 68.6557C28.6665 63.9736 23.8724 60.69 18.9143 61.1625C18.1605 61.2341 17.5098 61.7686 17.5098 62.5943C17.5098 63.315 18.1559 64.0977 18.9143 64.0261C20.9041 63.8352 22.5895 64.2695 24.2563 65.31C25.7779 66.2598 27.1075 67.8204 27.7021 69.4193C27.9689 70.14 28.6478 70.6364 29.4297 70.4216C30.1085 70.2259 30.6797 69.3811 30.4082 68.6557Z" fill="#DE0052"/>
<path d="M39.9917 54.8576C39.5563 57.182 40.0947 59.5158 41.5414 61.3724C42.8664 63.0715 44.9123 64.0404 47.0098 64.1931C47.7448 64.2456 48.4471 63.4963 48.4143 62.7613C48.3769 61.9404 47.7963 61.3867 47.0098 61.3294C46.9115 61.3199 46.7616 61.3294 46.668 61.296C46.771 61.3294 46.8693 61.3294 46.7008 61.296C46.4948 61.2531 46.2888 61.2101 46.0875 61.1481C45.9049 61.0956 45.7269 61.024 45.5444 60.9619C45.3852 60.9094 45.7504 61.0669 45.5116 60.9476C45.4086 60.8951 45.3056 60.8474 45.2026 60.7901C45.034 60.6994 44.8702 60.5992 44.711 60.4942C44.6314 60.4417 44.5565 60.3797 44.4769 60.3272C44.3364 60.2365 44.6408 60.4799 44.4441 60.3033C44.1398 60.0313 43.8636 59.7449 43.5967 59.4394C43.461 59.2819 43.7746 59.7115 43.5686 59.3965C43.5124 59.3106 43.4563 59.2294 43.4048 59.1435C43.2971 58.9717 43.1988 58.7951 43.1098 58.6138C43.063 58.5231 43.0255 58.4324 42.9834 58.3369C43.1145 58.6281 42.96 58.2654 42.946 58.2272C42.8804 58.0363 42.8195 57.8406 42.7727 57.6449C42.7259 57.4492 42.6884 57.2488 42.6557 57.0483C42.7119 57.3585 42.6604 57.077 42.6557 57.0054C42.6463 56.9051 42.6416 56.8049 42.6369 56.6999C42.6276 56.4756 42.6323 56.2513 42.6463 56.0317C42.651 55.9315 42.665 55.8313 42.6744 55.7263C42.6463 55.984 42.6791 55.7454 42.6978 55.626C42.8336 54.891 42.4965 54.0463 41.7146 53.8649C41.0264 53.6979 40.1369 54.0749 39.9917 54.8576Z" fill="#DE0052"/>
<path d="M51.4717 59.0958C52.9886 58.7999 54.4213 57.6688 55.0439 56.2226C55.7556 54.5761 55.6713 52.5858 54.6226 51.092C54.4025 50.7817 54.1544 50.5383 53.7845 50.4333C53.4474 50.3379 53.0027 50.3808 52.703 50.5765C52.1131 50.9631 51.7433 51.8842 52.1974 52.5333C52.2863 52.6574 52.3659 52.7863 52.4408 52.9247C52.4783 52.9915 52.5064 53.0631 52.5438 53.1299C52.6281 53.2826 52.4268 52.7958 52.5251 53.087C52.5673 53.2206 52.6141 53.3495 52.6468 53.4831C52.6656 53.5595 52.6796 53.6358 52.6937 53.7074C52.7545 53.9651 52.6796 53.4688 52.689 53.6454C52.6983 53.7838 52.7124 53.9222 52.7077 54.0606C52.7077 54.1513 52.703 54.2467 52.6983 54.3374C52.689 54.5331 52.6983 54.2992 52.7171 54.2324C52.6749 54.3804 52.6609 54.5379 52.6234 54.6858C52.6047 54.7622 52.5813 54.8338 52.5532 54.9054C52.5111 55.0295 52.4034 55.1201 52.5813 54.8529C52.5111 54.9579 52.4689 55.0867 52.4034 55.1965C52.3659 55.2585 52.3285 55.3206 52.291 55.3779C52.2629 55.4208 52.1131 55.6308 52.2489 55.4399C52.3893 55.2442 52.2208 55.4685 52.1974 55.4924C52.1506 55.5449 52.1038 55.5974 52.0523 55.6499C51.9633 55.7406 51.8556 55.817 51.7713 55.9076C51.9867 55.669 51.9165 55.7931 51.8182 55.8647C51.762 55.9076 51.7011 55.9458 51.6403 55.984C51.5185 56.0604 51.3968 56.1224 51.2704 56.1892C51.0972 56.2751 51.3172 56.1558 51.3734 56.1463C51.3125 56.1558 51.2376 56.1988 51.1721 56.2179C51.0223 56.2656 50.8724 56.3038 50.7226 56.3324C50.0016 56.4708 49.5194 57.3967 49.7394 58.0935C49.9923 58.881 50.6945 59.2438 51.4717 59.0958Z" fill="#DE0052"/>
<path d="M38.8682 41.1123C41.1108 44.6155 45.4415 46.3766 49.4351 45.3553C50.1467 45.1739 50.6477 44.3196 50.4183 43.5941C50.1795 42.84 49.4538 42.3962 48.6907 42.5919C48.48 42.6444 48.274 42.6873 48.0633 42.7303C47.9369 42.7541 47.9135 42.7494 48.054 42.735C47.9463 42.7494 47.8433 42.7589 47.7356 42.7685C47.3517 42.7971 46.9678 42.8019 46.5839 42.7732C46.4762 42.7637 46.3732 42.7541 46.2655 42.7446C45.994 42.7207 46.3545 42.7685 46.1953 42.735C46.008 42.6969 45.8161 42.6682 45.6288 42.6253C45.2308 42.5346 44.8422 42.4105 44.463 42.2625C44.4396 42.253 44.2008 42.1528 44.3319 42.21C44.4864 42.2816 44.1774 42.1337 44.1493 42.1194C43.9761 42.0335 43.8029 41.9428 43.6343 41.8473C43.4658 41.7519 43.3019 41.6469 43.1427 41.5419C43.0538 41.4798 42.9648 41.4225 42.8759 41.3557C42.801 41.2985 42.6465 41.1791 42.801 41.3032C42.5013 41.0598 42.2157 40.7925 41.9536 40.5062C41.8084 40.3487 41.668 40.1816 41.5322 40.0146C41.6211 40.1291 41.579 40.0814 41.5181 39.9907C41.4432 39.881 41.373 39.776 41.3028 39.6662C40.9002 39.041 40.0387 38.7212 39.3832 39.1507C38.7606 39.5564 38.4375 40.4441 38.8682 41.1123Z" fill="#DE0052"/>
<path d="M57.661 49.6172C58.9766 51.5406 61.1115 52.5715 63.3962 52.5906C65.7325 52.6097 67.9189 51.4833 69.5294 49.7986C73.1157 46.0424 73.8648 40.3963 73.3919 35.3897C73.1063 32.3734 72.4696 29.4143 71.7907 26.4695C71.374 24.6749 68.668 25.4338 69.08 27.2331C70.0959 31.624 71.1634 36.2393 70.5594 40.7781C70.0819 44.3577 68.2138 48.782 64.445 49.6268C62.914 49.9704 60.9804 49.4788 60.0862 48.1711C59.6508 47.5363 58.8549 47.2452 58.1666 47.6556C57.5486 48.0231 57.2209 48.9777 57.661 49.6172Z" fill="#DE0052"/>
<path d="M63.6068 52.3233C65.7464 56.6618 64.412 62.7136 60.5168 65.6345C59.9081 66.0927 59.5991 66.8754 60.0111 67.5913C60.3623 68.207 61.3174 68.5649 61.9307 68.1068C67.1134 64.2218 68.9253 56.7572 66.0273 50.8772C65.6855 50.1852 64.7304 49.9895 64.1077 50.3618C63.4195 50.7722 63.265 51.6265 63.6068 52.3233Z" fill="#DE0052"/>
<path d="M41.9066 68.6461C50.6054 68.8895 59.2996 69.1329 67.9984 69.3763C70.4563 69.4431 72.9143 69.5147 75.3676 69.5815C77.1747 69.634 77.1747 66.7704 75.3676 66.7179C66.6687 66.4745 57.9746 66.2311 49.2758 65.9877C46.8178 65.9209 44.3599 65.8493 41.9066 65.7825C40.0994 65.73 40.1041 68.5936 41.9066 68.6461Z" fill="#DE0052"/>
</g>
<defs>
<clipPath id="clip0">
<rect width="103" height="105" fill="white"/>
</clipPath>
</defs>
</svg>
