<svg width="103" height="105" viewBox="0 0 103 105" fill="none" xmlns="http://www.w3.org/2000/svg">
<g clip-path="url(#clip0)">
<path d="M55.9479 104.284C81.417 104.284 102.064 83.2364 102.064 57.2727C102.064 31.3091 81.417 10.2614 55.9479 10.2614C30.4788 10.2614 9.83203 31.3091 9.83203 57.2727C9.83203 83.2364 30.4788 104.284 55.9479 104.284Z" fill="#F9E5E9"/>
<path d="M34.6224 6.76287C35.3294 19.8306 47.3476 27.2951 53.434 37.6329C55.082 40.4345 56.3227 43.5272 56.5802 46.8108C56.6551 47.7845 57.4135 48.3763 58.3593 48.1902C58.1579 48.2283 58.5419 48.1854 58.5934 48.1902C58.392 48.1758 58.7947 48.2474 58.8181 48.2522C58.9726 48.3047 59.1271 48.4049 59.2488 48.5195C59.4314 48.6913 59.5016 48.7772 59.5765 48.9442C59.6421 49.0874 59.6795 49.2783 59.6608 49.412C59.6234 49.6792 59.422 49.9895 59.1271 50.1804C59.1224 50.1804 58.7479 50.3761 58.9258 50.2997C58.79 50.3522 58.6402 50.3999 58.495 50.419C58.687 50.3952 58.4248 50.4095 58.3546 50.4047C58.2563 50.3999 58.2563 50.3999 58.3639 50.4142C58.2656 50.3952 58.172 50.3665 58.0784 50.3331C57.2731 50.0706 56.2056 50.7961 56.2993 51.7124C56.7955 56.6188 55.2459 61.6349 52.0294 65.3481C48.6726 69.2236 43.7988 71.2472 38.7471 71.104C35.8959 71.0229 33.0868 70.2354 30.6054 68.7558C29.7159 68.2261 28.4424 68.8942 28.4939 69.992C28.7421 75.5522 28.9949 81.1172 29.243 86.6774C29.2758 87.4506 29.8657 88.1092 30.6476 88.1092C31.3826 88.1092 32.0849 87.4554 32.0521 86.6774C31.804 81.1172 31.5512 75.5522 31.303 69.992C30.6008 70.4024 29.8938 70.8177 29.1915 71.2281C34.2339 74.2254 40.5918 74.8029 46.0882 72.7983C51.5472 70.8081 55.7047 66.4506 57.8302 60.9906C58.9679 58.0697 59.4314 54.8386 59.113 51.7076C58.5184 52.1658 57.9285 52.6288 57.3339 53.087C59.6655 53.8458 62.306 52.0131 62.4605 49.5217C62.6244 46.8824 60.0354 44.9447 57.6149 45.4267C58.2094 45.8849 58.7994 46.3479 59.3939 46.8061C58.3874 33.7765 46.3925 26.4504 40.4045 15.9886C38.7893 13.1631 37.6188 10.0561 37.4409 6.76287C37.3988 5.98969 36.8276 5.33105 36.0364 5.33105C35.2966 5.33105 34.5803 5.98492 34.6224 6.76287Z" fill="#DE0052"/>
<path d="M12.5523 44.3863C11.9249 51.2399 14.2658 58.1986 18.6199 63.4151C19.8699 64.9138 21.2979 66.2167 22.8523 67.3765C23.4656 67.8347 24.4207 67.4815 24.7718 66.8611C25.1885 66.1356 24.8842 65.3624 24.2662 64.9042C19.4299 61.2961 16.2369 55.5306 15.4316 49.4979C15.2162 47.8942 15.2022 46.0711 15.3567 44.3863C15.4269 43.6131 14.6591 42.9545 13.9521 42.9545C13.1422 42.9545 12.6272 43.6131 12.5523 44.3863Z" fill="#DE0052"/>
<path d="M61.0232 61.5585C59.6654 63.3674 58.2749 65.3051 57.877 67.6008C57.4978 69.7867 57.9144 72.2685 59.6935 73.729C61.2947 75.0415 63.6263 75.4615 65.3679 74.1585C67.3951 72.636 67.6948 69.9633 67.1563 67.6151C66.5664 65.057 65.2696 62.6945 63.6309 60.6851C63.144 60.0885 62.1468 60.1745 61.6458 60.6851C61.07 61.2722 61.1589 62.1122 61.6458 62.7088C62.6758 63.9735 63.5092 65.4531 64.0476 67.0042C64.5439 68.4408 64.9933 70.2163 64.1038 71.4667C64.0008 71.6147 63.8088 71.8008 63.6122 71.9154C63.5467 71.9535 63.4764 71.9965 63.4062 72.0251C63.5748 71.9535 63.3453 72.0347 63.3266 72.0395C63.2564 72.0585 63.1862 72.0776 63.1113 72.092C62.8818 72.1349 63.2798 72.092 63.0504 72.092C62.9895 72.092 62.5682 72.0776 62.7648 72.1015C62.6197 72.0824 62.4698 72.0442 62.3294 72.0013C62.0578 71.9201 61.894 71.839 61.5803 71.6147C61.6973 71.7006 61.379 71.4381 61.3368 71.3951C61.2713 71.3283 61.0981 71.1279 61.0981 71.1326C60.967 70.9513 60.7844 70.5742 60.7001 70.2735C60.5035 69.6006 60.4848 68.8608 60.6205 68.1735C61.0091 66.2024 62.2826 64.5654 63.453 62.9999C63.9118 62.3842 63.5467 61.3963 62.9474 61.0431C62.2217 60.6135 61.4867 60.9429 61.0232 61.5585Z" fill="#DE0052"/>
</g>
<defs>
<clipPath id="clip0">
<rect width="103" height="105" fill="white"/>
</clipPath>
</defs>
</svg>
