<svg width="27" height="27" viewBox="0 0 27 27" fill="none" xmlns="http://www.w3.org/2000/svg">
<g clip-path="url(#clip0)">
<circle cx="13.5" cy="13.5" r="13.5" fill="#F8B2D0"/>
<path fill-rule="evenodd" clip-rule="evenodd" d="M18.9241 5.03149V8.52293L16.8519 8.52832C15.2276 8.52832 14.9146 9.3 14.9146 10.4278V12.9263H18.7837L18.2819 16.8333H14.9146V27H10.8786V16.8333H7.5V12.9263H10.8786V10.0447C10.8786 6.69896 12.9179 4.875 15.9075 4.875C17.3327 4.875 18.5625 4.98293 18.9241 5.03149Z" fill="white"/>
</g>
<defs>
<clipPath id="clip0">
<rect width="27" height="27" fill="white"/>
</clipPath>
</defs>
</svg>
