<svg width="78" height="78" viewBox="0 0 78 78" fill="none" xmlns="http://www.w3.org/2000/svg">
<g clip-path="url(#clip0)">
<path d="M76.1962 72.3964L75.2224 69.5631C74.7655 68.2341 73.0804 67.8335 72.0745 68.8147L70.4655 70.3839C70.2293 70.6143 70.0567 70.9018 69.9642 71.2185L69.1626 73.9671C68.9943 74.5438 69.1065 75.1659 69.4656 75.6476L70.6439 77.2283C71.6165 78.533 73.6701 78.1069 74.0431 76.5229L74.0985 76.2876C74.1902 75.8985 74.4013 75.5478 74.7023 75.2847L75.6453 74.4605C76.2315 73.9484 76.4492 73.1325 76.1962 72.3964Z" fill="#FF6F7F"/>
<path d="M30.2186 9.85589L38.9995 39L30.2186 68.7953C30.1684 68.7498 30.1402 68.7247 30.1402 68.7247C29.2958 67.962 27.9555 68.2413 27.4847 69.2756C27.0924 70.1403 26.0612 70.5076 25.2106 70.087L18.2722 66.6609C15.033 65.0617 14.2796 61.7926 15.5116 59.327C16.7295 56.8913 17.6507 54.2939 17.9693 51.5788C18.3209 48.575 18.1012 44.4992 19.3802 41.7496C20.2214 39.9447 19.9295 37.815 18.6363 36.3021L16.1488 33.3893C15.4473 32.5685 14.9153 31.6174 14.5794 30.591C14.5794 30.5722 13.644 27.1258 9.97159 25.5626L4.06117 23.0484C2.62045 22.4348 2.30499 21.1761 2.06016 20.8088C1.06515 18.8581 2.22181 16.4977 4.37191 16.088L9.00954 15.2045C9.57139 15.0977 9.27477 15.0852 16.8723 17.3812C18.1985 17.7814 19.4116 16.4945 18.9361 15.195L17.7936 12.0735C17.0732 10.1086 19.374 8.05734 21.2604 8.94092C21.2871 8.95348 26.281 11.2935 26.281 11.2935C27.6746 11.9448 29.3335 11.3908 30.0538 10.0317C30.1088 9.97046 30.1653 9.91239 30.2186 9.85589Z" fill="#5C84D9"/>
<path d="M73.0631 20.7429C73.06 20.7429 72.5985 21.2907 72.5342 22.1272L72.134 27.2529C72.0179 28.7485 70.7498 29.8926 69.2494 29.8565C68.1084 29.8283 67.0632 30.489 66.6002 31.5327L63.6607 38.1446C63.1208 39.3625 64.0656 40.7185 65.3949 40.6322C66.5233 40.5584 67.4305 41.544 67.2625 42.6614L67.0554 44.0441C66.8702 45.2792 67.7302 45.9603 68.0096 46.4531C68.7896 47.5392 68.4427 49.0631 67.2688 49.7034C66.4025 50.1758 65.9505 51.1614 66.1592 52.125L66.8529 55.3423C66.969 55.8775 67.2767 56.3499 67.7192 56.6716L69.2996 57.8204C70.7278 58.8594 70.993 60.8839 69.8803 62.2556C68.5212 63.9333 67.1574 66.0818 64.9037 66.5793C62.9247 67.0156 60.671 67.8301 58.6794 67.0831C58.6747 67.0815 56.0632 66.1022 54.1862 65.3991L47.4463 39L54.1862 8.65686C54.781 9.0241 55.5107 9.45099 56.4634 10.0254C58.2525 11.1067 59.5755 11.2072 62.4884 11.7423C63.0549 11.8459 63.5697 12.1331 63.9558 12.56L65.9395 14.7572C66.2895 15.1433 66.7462 15.4163 67.2531 15.5419L71.6145 16.6185C73.4413 17.0705 74.2072 19.2473 73.0631 20.7429Z" fill="#FF6F7F"/>
<path d="M24.6343 29.8482C24.6343 23.8009 24.8286 17.3359 26.4192 11.35C26.3731 11.3313 26.3265 11.3147 26.281 11.2935C26.281 11.2935 21.2871 8.95348 21.2604 8.94092C19.374 8.05734 17.0732 10.1086 17.7936 12.0735L18.9361 15.195C19.4116 16.4945 18.1985 17.7814 16.8723 17.3812C9.27477 15.0852 9.57139 15.0977 9.00954 15.2045L4.37191 16.088C2.22181 16.4977 1.06515 18.8581 2.06016 20.8088C2.30499 21.1761 2.62045 22.4348 4.06117 23.0484L9.97159 25.5626C13.644 27.1258 14.5794 30.5722 14.5794 30.591C14.9153 31.6174 15.4473 32.5685 16.1488 33.3893L18.6363 36.3021C19.9295 37.815 20.2215 39.9447 19.3802 41.7496C18.1012 44.4993 18.3209 48.575 17.9693 51.5788C17.6507 54.2939 16.7295 56.8913 15.5116 59.327C14.2796 61.7926 15.033 65.0617 18.2722 66.6609L25.2106 70.087C26.0613 70.5076 27.0924 70.1403 27.4847 69.2756C27.9555 68.2413 29.2958 67.962 30.1402 68.7247C30.1402 68.7247 30.1684 68.7498 30.2186 68.7953L33.9644 56.0854C28.1327 48.9303 24.6343 39.7983 24.6343 29.8482Z" fill="#4677D4"/>
<path d="M54.1869 8.65684V65.3991C53.1322 65.0036 52.3083 64.6944 52.3083 64.6944C49.9024 63.7873 47.9202 65.3756 45.9459 66.5291C44.2258 67.5335 43.2763 69.4686 43.5352 71.4429C43.7204 72.8523 42.5512 74.0701 41.134 73.9414C39.4297 73.7861 36.1072 74.1141 34.7826 72.9166C34.7732 72.9088 30.8293 69.3462 30.2188 68.7953V9.85588C31.4711 8.56425 32.4913 8.49205 34.3965 8.28803C35.922 8.12324 37.1352 6.93205 37.3251 5.40972L37.8179 1.47205C37.9214 0.630844 38.6371 -6.10352e-05 39.4846 -6.10352e-05H41.1654C43.857 -6.10352e-05 46.8765 1.25076 48.8006 3.42127L51.6397 6.62288C52.404 7.48449 53.0506 7.96002 54.1869 8.65684Z" fill="#EAEAEA"/>
<path d="M30.2188 50.6669V68.7953C30.8293 69.3461 34.7732 72.9087 34.7826 72.9165C36.1072 74.114 39.4297 73.786 41.134 73.9414C42.5512 74.0701 43.7204 72.8522 43.5353 71.4429C43.2763 69.4685 44.2258 67.5334 45.9459 66.529C46.0562 66.4647 46.1664 66.3986 46.2769 66.3321C39.5979 62.678 34.0327 57.2437 30.2188 50.6669Z" fill="#E2E2E2"/>
</g>
<defs>
<clipPath id="clip0">
<rect width="78" height="78" fill="white"/>
</clipPath>
</defs>
</svg>
