<svg width="179" height="179" viewBox="0 0 179 179" fill="none" xmlns="http://www.w3.org/2000/svg">
<g clip-path="url(#clip0)">
<circle cx="89.0093" cy="89.0093" r="89.5" fill="white"/>
<path d="M67.9124 83.3156C67.6654 83.0685 67.3227 82.9277 66.9733 82.9277C66.6227 82.9277 66.2812 83.0685 66.0328 83.3156C65.7858 83.5639 65.645 83.9052 65.645 84.256C65.645 84.6053 65.7858 84.9481 66.0328 85.1951C66.2812 85.4422 66.6227 85.5843 66.9733 85.5843C67.3226 85.5843 67.6654 85.4422 67.9124 85.1951C68.1595 84.9468 68.3016 84.6054 68.3016 84.256C68.3016 83.9066 68.1596 83.5639 67.9124 83.3156Z" fill="#5C75D6"/>
<path d="M117.657 69.0194C118.31 68.7706 118.873 68.5557 119.302 68.2833C119.785 67.977 120.192 67.657 120.544 67.3043C123.238 64.6103 123.238 60.2259 120.543 57.5306C117.848 54.836 113.464 54.8354 110.769 57.5295C110.417 57.8813 110.097 58.2873 109.79 58.7712C109.518 59.2004 109.303 59.7637 109.054 60.4158C108.815 61.0432 108.263 62.4912 107.865 62.7375C107.831 62.7262 107.767 62.6994 107.67 62.6363C105.788 61.4103 101.637 59.4568 98.4165 60.0782L97.3492 59.0109C96.4129 58.0746 95.168 57.559 93.8439 57.559C92.5197 57.559 91.2748 58.0746 90.3385 59.0109C89.4022 59.9472 88.8864 61.1921 88.8864 62.5163C88.8864 63.1915 89.0213 63.8457 89.2768 64.4494C86.7504 64.2942 84.1715 65.1777 82.2452 67.1039L69.1045 80.2447C68.5858 80.7633 68.5858 81.6044 69.1045 82.1232C69.6231 82.6418 70.4642 82.6418 70.983 82.1232L78.4392 74.667L83.1646 79.3923C83.4239 79.6517 83.7638 79.7813 84.1038 79.7813C84.4438 79.7813 84.7838 79.6515 85.0431 79.3923C85.5617 78.8736 85.5617 78.0325 85.0431 77.5139L80.3178 72.7886L84.1239 68.9826C85.3493 67.7571 86.9786 67.0823 88.7115 67.0823C90.4445 67.0823 92.0737 67.7571 93.2993 68.9826L109.091 84.7739C110.316 85.9994 110.991 87.6287 110.991 89.3617C110.991 91.0947 110.316 92.7239 109.091 93.9494L83.4299 119.611C81.7711 121.27 79.0718 121.27 77.4126 119.611L58.463 100.661C56.804 99.0021 56.804 96.3028 58.463 94.6438L64.5744 88.5324C65.0931 88.0138 65.0931 87.1727 64.5744 86.6539C64.0558 86.1351 63.2147 86.1352 62.6959 86.6539L56.5845 92.7653C53.8898 95.4601 53.8898 99.8447 56.5845 102.54L75.5343 121.489C76.8816 122.837 78.6514 123.51 80.4213 123.51C82.1912 123.51 83.961 122.837 85.3084 121.489L110.969 95.8281C112.896 93.9019 113.779 91.323 113.624 88.7966C114.228 89.0521 114.882 89.1869 115.557 89.1869C116.881 89.1869 118.126 88.6713 119.063 87.735C120.995 85.8023 120.995 82.6571 119.063 80.7244L117.995 79.6571C118.617 76.437 116.663 72.2861 115.437 70.4033C115.374 70.3065 115.347 70.2426 115.336 70.2089C115.582 69.8107 117.03 69.2587 117.657 69.0194ZM115.575 80.9935C115.575 80.9939 115.576 80.9943 115.576 80.9947L117.184 82.6027C118.081 83.5 118.081 84.9596 117.184 85.8566C116.75 86.291 116.172 86.5304 115.557 86.5304C114.943 86.5304 114.365 86.291 113.93 85.8563L92.2172 64.1434C91.7827 63.7089 91.5434 63.1311 91.5434 62.5165C91.5434 61.902 91.7827 61.3241 92.2174 60.8897C92.6658 60.4412 93.2551 60.217 93.8443 60.217C94.4334 60.217 95.0227 60.4412 95.4711 60.8897L97.0799 62.4985C97.08 62.4986 97.0801 62.4989 97.0804 62.499L115.575 80.9935ZM113.211 71.853C114.18 73.3406 115.01 75.2906 115.326 76.9881L101.086 62.7475C102.783 63.0637 104.733 63.8939 106.221 64.8628C107.245 65.5297 108.114 65.4566 108.663 65.2783C110.239 64.7653 110.958 62.8786 111.536 61.3626C111.709 60.9101 111.905 60.397 112.033 60.1944C112.234 59.8778 112.435 59.6207 112.648 59.4082C114.306 57.75 117.005 57.7504 118.664 59.4092C120.323 61.0686 120.324 63.7676 118.666 65.4261C118.453 65.6387 118.196 65.8395 117.88 66.04C117.676 66.1689 117.163 66.3646 116.71 66.5372C115.195 67.1153 113.308 67.8349 112.795 69.4108C112.617 69.9596 112.544 70.8287 113.211 71.853Z" fill="#5C75D6"/>
<path d="M104.228 92.3401L98.6894 86.8016C98.1707 86.2829 97.3296 86.2829 96.8109 86.8016C96.2922 87.3202 96.2922 88.1613 96.8109 88.6801L102.349 94.2186C102.609 94.478 102.949 94.6076 103.289 94.6076C103.629 94.6076 103.969 94.478 104.228 94.2186C104.746 93.6999 104.746 92.8588 104.228 92.3401Z" fill="#5C75D6"/>
<path d="M97.9113 98.657L92.3728 93.1186C91.8543 92.5998 91.0132 92.5998 90.4944 93.1186C89.9758 93.6372 89.9758 94.4783 90.4944 94.9971L96.0329 100.536C96.2923 100.795 96.6322 100.925 96.9722 100.925C97.3122 100.925 97.6522 100.795 97.9114 100.536C98.43 100.017 98.43 99.1758 97.9113 98.657Z" fill="#5C75D6"/>
<path d="M91.5944 104.973L86.0559 99.4349C85.5373 98.9162 84.6962 98.9162 84.1776 99.4349C83.6589 99.9535 83.6589 100.795 84.1776 101.313L89.716 106.852C89.9754 107.111 90.3153 107.241 90.6553 107.241C90.9952 107.241 91.3353 107.111 91.5946 106.852C92.1132 106.333 92.1132 105.492 91.5944 104.973Z" fill="#5C75D6"/>
<path d="M85.278 111.29L79.7395 105.751C79.2209 105.233 78.3798 105.233 77.8611 105.751C77.3425 106.27 77.3425 107.111 77.8611 107.63L83.3996 113.168C83.659 113.428 83.9989 113.557 84.3389 113.557C84.6789 113.557 85.0189 113.428 85.2781 113.168C85.7968 112.65 85.7968 111.809 85.278 111.29Z" fill="#5C75D6"/>
<path d="M89.5032 81.9728C89.2562 81.7257 88.9135 81.585 88.5641 81.585C88.2148 81.585 87.872 81.7257 87.625 81.9728C87.3766 82.2198 87.2358 82.5625 87.2358 82.9132C87.2358 83.2625 87.3766 83.6053 87.625 83.8524C87.872 84.0994 88.2147 84.2415 88.5641 84.2415C88.9134 84.2415 89.2563 84.0995 89.5032 83.8524C89.7503 83.6053 89.8924 83.2627 89.8924 82.9132C89.8924 82.5626 89.7503 82.2211 89.5032 81.9728Z" fill="#5C75D6"/>
<path d="M139.382 44.3687C139.418 43.8116 139.656 43.3406 140.106 42.9526C140.542 42.5746 141.038 42.4054 141.59 42.4518C142.142 42.495 142.601 42.7271 142.961 43.1483C143.322 43.5662 143.487 44.057 143.457 44.6175C143.427 45.1779 143.193 45.6489 142.757 46.0269C142.31 46.4149 141.808 46.5841 141.249 46.5343C140.691 46.4846 140.232 46.2524 139.871 45.8313C139.511 45.4134 139.349 44.9259 139.382 44.3687Z" fill="#FFC5DE"/>
<path d="M155.616 64.8343C155.309 65.9453 154.585 66.7479 153.445 67.2454C152.718 67.5604 151.984 67.6699 151.244 67.567C150.5 67.4642 149.803 67.1293 149.145 66.5655C148.491 65.9984 147.932 65.1892 147.479 64.1379C147.103 63.2723 146.865 62.3802 146.762 61.4615C146.66 60.5429 146.706 59.7138 146.904 58.9676L149.063 59.16C148.887 59.7702 148.831 60.4401 148.891 61.1631C148.95 61.886 149.125 62.5825 149.416 63.2524C149.76 64.0483 150.196 64.6055 150.725 64.9172C151.25 65.229 151.802 65.2621 152.377 65.0101C152.999 64.7382 153.362 64.2871 153.468 63.6603C153.571 63.0302 153.366 62.1215 152.85 60.9309L151.581 58.0025L158.435 55.7573L161.519 62.8843L159.635 63.7034L157.375 58.4834L154.463 59.4419L154.965 60.6026C155.706 62.3139 155.924 63.7233 155.616 64.8343Z" fill="#FFC5DE"/>
<path d="M156.072 90.3538C155.17 90.4135 154.453 90.1216 153.918 89.4782C153.382 88.8315 153.072 87.8432 152.982 86.51L152.635 81.3796L162.672 80.6997L163.003 85.6213C163.086 86.8516 162.924 87.83 162.52 88.553C162.117 89.2759 161.499 89.664 160.673 89.7203C160.157 89.7568 159.705 89.6507 159.311 89.4053C158.918 89.1599 158.597 88.8017 158.35 88.3241C158.062 89.5943 157.302 90.2709 156.072 90.3538ZM156.069 88.0621C156.509 88.0323 156.826 87.8598 157.024 87.5415C157.223 87.2231 157.302 86.7455 157.259 86.1054L157.071 83.3329L154.496 83.5087L154.678 86.2049C154.767 87.4983 155.23 88.1185 156.069 88.0621ZM158.634 83.2268L158.799 85.6975C158.882 86.918 159.341 87.4983 160.18 87.442C160.994 87.3856 161.36 86.7488 161.278 85.5284L161.112 83.0577L158.634 83.2268Z" fill="#FFC5DE"/>
<path d="M161.413 101.066C160.623 101.772 159.516 102.048 158.092 101.892L152.229 101.252L152.47 99.0329L153.686 99.1655C153.279 98.8306 152.992 98.3829 152.817 97.8257C152.642 97.2686 152.595 96.6119 152.678 95.8624C152.761 95.1096 152.959 94.4662 153.276 93.9323C153.593 93.395 153.997 93.0004 154.486 92.7417C154.975 92.483 155.507 92.3868 156.082 92.4498C156.981 92.546 157.665 92.9606 158.134 93.6902C158.604 94.4198 158.762 95.5042 158.607 96.9469L158.326 99.5403L158.475 99.5569C159.176 99.6332 159.734 99.4806 160.154 99.1025C160.574 98.7245 160.828 98.1209 160.917 97.2951C160.977 96.7313 160.95 96.1675 160.835 95.6037C160.719 95.0399 160.524 94.5524 160.253 94.1445L162.057 93.4083C162.401 93.9787 162.636 94.642 162.768 95.4047C162.9 96.1675 162.92 96.9601 162.834 97.7892C162.679 99.265 162.203 100.359 161.413 101.066ZM154.565 98.1507C154.783 98.6382 155.134 99.003 155.613 99.2451L156.773 99.3712L157.034 96.9469C157.179 95.5938 156.809 94.8675 155.923 94.7713C155.5 94.7249 155.143 94.8575 154.859 95.1693C154.572 95.481 154.397 95.9354 154.33 96.539C154.268 97.126 154.347 97.6632 154.565 98.1507Z" fill="#FFC5DE"/>
<path d="M152.718 114.338L153.253 112.723L149.426 111.446L150.163 109.221L153.99 110.498L154.526 108.883L151.472 105.275L152.351 102.618L156.244 107.404L161.82 106.037L161.03 108.422L156.396 109.467L155.851 111.118L159.711 112.405L158.974 114.63L155.114 113.343L154.572 114.975L157.656 118.613L156.866 120.998L153.217 116.554L147.238 118.066L148.124 115.393L152.718 114.338Z" fill="#FFC5DE"/>
<path d="M154.85 124.559L153.624 126.576L150.133 124.436L147.493 128.778L150.983 130.917L149.757 132.933L141.17 127.673L142.397 125.657L145.791 127.736L148.431 123.395L145.041 121.316L146.267 119.299L154.85 124.559Z" fill="#FFC5DE"/>
<path d="M139.693 144.428L138.06 146.129L130.816 139.128L132.449 137.427L139.693 144.428ZM138.288 139.845C137.403 139.934 136.58 139.609 135.82 138.876C135.023 138.107 134.67 137.241 134.752 136.283C134.835 135.325 135.357 134.353 136.315 133.371L139.491 130.088L146.736 137.092L145.103 138.793L142.73 136.499L140.952 138.323C140.063 139.248 139.174 139.755 138.288 139.845ZM136.92 135.872C136.884 136.346 137.076 136.784 137.492 137.185C137.898 137.58 138.318 137.739 138.754 137.669C139.187 137.6 139.657 137.308 140.162 136.8L141.56 135.371L139.105 132.996L137.707 134.426C137.218 134.917 136.957 135.397 136.92 135.872Z" fill="#FFC5DE"/>
<path d="M123.191 144.468L127.293 145.877L127.455 141.516L129.593 140.034L129.266 146.484L135.165 148.441L133.01 149.933L129.107 148.617L128.949 152.745L126.857 154.195L127.167 147.986L121.007 145.98L123.191 144.468Z" fill="#FFC5DE"/>
<path d="M112.414 160.104C111.469 159.975 110.639 159.623 109.922 159.05C109.205 158.476 108.673 157.72 108.332 156.785C107.992 155.849 107.906 154.927 108.084 154.015C108.26 153.107 108.666 152.294 109.301 151.584C109.938 150.875 110.751 150.338 111.74 149.973C112.602 149.654 113.432 149.512 114.232 149.538C115.031 149.565 115.768 149.757 116.449 150.112L115.63 151.823C114.615 151.352 113.564 151.316 112.48 151.714C111.677 152.009 111.072 152.477 110.656 153.12C110.243 153.763 110.084 154.473 110.183 155.259L114.552 153.651L115.137 155.249L110.788 156.851C111.221 157.484 111.793 157.899 112.51 158.101C113.227 158.304 113.977 158.254 114.767 157.965C115.851 157.567 116.628 156.851 117.094 155.82L118.822 156.592C118.551 157.309 118.115 157.935 117.513 158.473C116.915 159.01 116.185 159.434 115.322 159.753C114.324 160.114 113.356 160.234 112.414 160.104Z" fill="#FFC5DE"/>
<path d="M97.3594 164.091L95.6177 154.148L97.9378 153.74L99.3325 161.709L103.044 161.056L102.793 159.066C102.624 157.74 102.552 156.615 102.575 155.697C102.598 154.778 102.78 154.022 103.117 153.432C103.454 152.841 103.992 152.48 104.733 152.351C105.08 152.291 105.519 152.281 106.048 152.331L106.28 154.304C106.101 154.297 105.949 154.304 105.823 154.327C105.354 154.41 105.034 154.662 104.865 155.08C104.696 155.501 104.624 155.979 104.647 156.519C104.67 157.06 104.746 157.823 104.868 158.814L105.374 162.678L97.3594 164.091Z" fill="#FFC5DE"/>
<path d="M83.1682 158.559L91.0605 158.655C90.9316 157.909 90.578 157.315 89.9996 156.874C89.4212 156.433 88.6974 156.208 87.8315 156.198C86.7277 156.184 85.8122 156.539 85.0884 157.262L83.8424 155.793C84.3018 155.256 84.8769 154.854 85.5709 154.586C86.265 154.317 87.0449 154.188 87.9108 154.198C89.0147 154.211 89.9864 154.443 90.8225 154.894C91.6587 155.345 92.2998 155.969 92.7493 156.761C93.1988 157.554 93.4169 158.449 93.4037 159.444C93.3905 160.426 93.1591 161.311 92.703 162.091C92.247 162.874 91.6223 163.48 90.8258 163.912C90.0293 164.343 89.1337 164.555 88.1422 164.542C87.1639 164.528 86.2881 164.303 85.5214 163.858C84.7546 163.414 84.1597 162.797 83.7334 162.005C83.3103 161.212 83.1021 160.3 83.1153 159.265C83.1253 159.093 83.1418 158.861 83.1682 158.559ZM90.0888 161.998C90.6143 161.557 90.9382 160.963 91.0605 160.224L85.3528 160.154C85.4453 160.887 85.7461 161.481 86.2551 161.942C86.764 162.403 87.4019 162.635 88.1686 162.645C88.9222 162.655 89.5633 162.439 90.0888 161.998Z" fill="#FFC5DE"/>
<path d="M71.1481 151.936L69.6973 158.47L74.2284 153.714L75.2199 153.936L77.2491 160.181L78.7066 153.631L80.8019 154.099L78.6108 163.952L76.2014 163.411L74.0763 156.467L69.0495 161.809L66.8979 161.329L69.0693 151.472L71.1481 151.936Z" fill="#FFC5DE"/>
<path d="M55.9985 150.357L63.1769 153.651C63.3586 152.918 63.276 152.231 62.9224 151.591C62.572 150.951 62.0003 150.45 61.2137 150.089C60.209 149.628 59.2307 149.581 58.2756 149.946L57.7303 148.096C58.3648 147.791 59.0556 147.658 59.7992 147.694C60.5428 147.731 61.3095 147.93 62.0961 148.291C63.1008 148.752 63.894 149.359 64.479 150.112C65.0607 150.865 65.3978 151.694 65.4903 152.603C65.5829 153.511 65.4209 154.417 65.0078 155.322C64.6013 156.218 64.0328 156.927 63.2991 157.458C62.5687 157.988 61.7491 158.287 60.8468 158.36C59.9446 158.433 59.0423 158.26 58.1401 157.846C57.2477 157.438 56.5438 156.874 56.0183 156.158C55.4961 155.441 55.202 154.632 55.1326 153.737C55.0632 152.841 55.2449 151.923 55.6713 150.981C55.7407 150.828 55.8497 150.623 55.9985 150.357ZM60.9394 156.31C61.6004 156.121 62.1325 155.71 62.5456 155.083L57.3535 152.702C57.142 153.409 57.175 154.075 57.456 154.705C57.7369 155.332 58.226 155.806 58.9234 156.125C59.6075 156.44 60.2817 156.499 60.9394 156.31Z" fill="#FFC5DE"/>
<path d="M49.7912 153.415L47.8776 152.039L50.2572 148.703L46.1359 145.741L43.7563 149.074L41.8428 147.698L47.7025 139.493L49.6161 140.869L47.3026 144.113L51.4239 147.074L53.7373 143.831L55.6509 145.207L49.7912 153.415Z" fill="#FFC5DE"/>
<path d="M34.0994 137.268L36.5484 139.808L42.342 134.18L43.9812 135.878L38.1876 141.506L40.6498 144.06L39.2155 145.453L32.665 138.661L34.0994 137.268Z" fill="#FFC5DE"/>
<path d="M37.6818 129.61C37.7942 130.532 37.662 131.411 37.2819 132.24C36.9052 133.069 36.3103 133.772 35.5005 134.346C34.6908 134.92 33.8348 135.245 32.9326 135.318C32.0336 135.394 31.1677 135.221 30.3382 134.807C29.5086 134.392 28.8014 133.769 28.2131 132.933C27.6182 132.087 27.2679 131.205 27.1555 130.28C27.0431 129.358 27.1753 128.482 27.5455 127.653C27.9189 126.828 28.5072 126.128 29.3203 125.554C30.13 124.98 30.9893 124.655 31.8948 124.576C32.8004 124.496 33.6696 124.665 34.4991 125.08C35.3287 125.494 36.0426 126.125 36.6341 126.97C37.2191 127.806 37.5694 128.685 37.6818 129.61ZM33.0416 126.881C32.2418 126.751 31.4586 126.96 30.6885 127.504C29.9185 128.048 29.4624 128.721 29.3136 129.517C29.1682 130.316 29.3434 131.069 29.8424 131.779C30.3415 132.489 30.9893 132.907 31.7825 133.033C32.5756 133.155 33.3589 132.946 34.129 132.399C34.899 131.855 35.3584 131.185 35.5072 130.393C35.6559 129.6 35.4807 128.851 34.9817 128.138C34.4826 127.425 33.8381 127.01 33.0416 126.881Z" fill="#FFC5DE"/>
<path d="M26.0417 113.522C26.8647 113.144 27.638 113.161 28.3651 113.575C29.0922 113.99 29.7334 114.802 30.2886 116.02L32.4236 120.692L23.2788 124.898L21.2297 120.414C20.7174 119.293 20.5224 118.321 20.6447 117.502C20.767 116.683 21.2066 116.099 21.9601 115.754C22.4294 115.539 22.8888 115.476 23.3449 115.565C23.801 115.655 24.2273 115.877 24.6239 116.235C24.452 114.938 24.9247 114.036 26.0417 113.522ZM26.1673 121.097L25.1395 118.845C24.6305 117.734 23.996 117.353 23.2325 117.704C22.4889 118.046 22.3732 118.772 22.8822 119.883L23.91 122.135L26.1673 121.097ZM26.8548 115.665C26.4549 115.847 26.2169 116.122 26.1442 116.49C26.0715 116.859 26.1673 117.333 26.435 117.916L27.5885 120.444L29.935 119.366L28.8113 116.908C28.2726 115.728 27.6182 115.313 26.8548 115.665Z" fill="#FFC5DE"/>
<path d="M21.1773 94.0718C20.8038 94.483 20.3213 94.7019 19.733 94.7218C19.1546 94.745 18.6655 94.5659 18.259 94.1812C17.8525 93.7965 17.641 93.3322 17.6211 92.7784C17.6013 92.2245 17.7765 91.7403 18.1499 91.3192C18.5234 90.9013 18.9993 90.6824 19.5777 90.6592C20.1693 90.636 20.665 90.8184 21.0682 91.2064C21.4714 91.5944 21.6862 92.0653 21.7061 92.6192C21.7259 93.1763 21.5507 93.6605 21.1773 94.0718Z" fill="#FFC5DE"/>
<path d="M25.8072 59.581C26.4748 59.3687 27.192 59.4085 27.9522 59.7037C29.0296 60.1215 29.7137 60.8478 30.0012 61.8792C30.2888 62.9106 30.1434 64.1841 29.5584 65.6997L27.3011 71.5532L15 66.7742L17.1284 61.2557C17.6638 59.8695 18.3545 58.8945 19.2072 58.334C20.0599 57.7735 20.9853 57.6873 21.9933 58.0786C22.6378 58.3274 23.1335 58.7021 23.4805 59.1929C23.8276 59.6871 24.0126 60.2741 24.0325 60.9573C24.548 60.2542 25.1396 59.7932 25.8072 59.581ZM21.1241 66.5587L22.3073 63.491C22.5948 62.7514 22.6642 62.128 22.5221 61.6272C22.38 61.1264 22.0197 60.7649 21.4447 60.5394C20.8729 60.3172 20.3607 60.3404 19.9112 60.6124C19.4617 60.8843 19.0949 61.3884 18.8106 62.1313L17.6274 65.199L21.1241 66.5587ZM26.8847 61.9456C25.6916 61.4813 24.7794 62.0616 24.1548 63.68L22.7931 67.2054L26.412 68.6115L27.7737 65.0862C28.3983 63.4645 28.1009 62.4165 26.8847 61.9456Z" fill="#FFC5DE"/>
<path d="M24.1055 53.4723L25.3977 51.4957L30.9434 55.1437L28.4416 46.8328L29.6182 45.0254L38.0326 50.5572L36.7437 52.5337L31.1979 48.8857L33.7097 57.18L32.5232 58.9974L24.1055 53.4723Z" fill="#FFC5DE"/>
<path d="M39.6582 36.8768L37.2423 39.447L43.1086 44.9987L41.4924 46.7166L35.6261 41.1682L33.197 43.7517L31.7461 42.3754L38.2106 35.5005L39.6582 36.8768Z" fill="#FFC5DE"/>
<path d="M46.9062 29.7431C47.9604 29.8294 48.9255 30.4429 49.7947 31.5804L53.3839 36.2765L51.619 37.6329L50.8721 36.6579C50.9118 37.1852 50.7895 37.7025 50.5053 38.2133C50.2243 38.724 49.7815 39.2082 49.1866 39.6692C48.5917 40.1301 47.9869 40.4286 47.3821 40.5712C46.7773 40.7105 46.2121 40.6939 45.6899 40.5148C45.1677 40.3391 44.7282 40.0207 44.3779 39.5597C43.8259 38.8401 43.6508 38.0574 43.8524 37.2117C44.054 36.366 44.7249 35.5037 45.8717 34.6216L47.934 33.033L47.8415 32.9136C47.4118 32.3532 46.9194 32.0514 46.3542 32.0083C45.7891 31.9651 45.181 32.1973 44.5233 32.7047C44.0738 33.0496 43.6871 33.4608 43.3599 33.9318C43.0327 34.406 42.8179 34.8836 42.7088 35.3611L40.9341 34.5586C41.1092 33.9152 41.4232 33.2851 41.8826 32.6616C42.342 32.0381 42.8972 31.4743 43.5549 30.9669C44.7381 30.0682 45.8519 29.6569 46.9062 29.7431ZM49.5369 36.7242C49.7352 36.23 49.7583 35.7226 49.603 35.2086L48.8924 34.28L46.9656 35.7657C45.8882 36.5948 45.6238 37.3643 46.1658 38.074C46.4269 38.4156 46.7673 38.5814 47.1904 38.5747C47.6134 38.5681 48.0629 38.3791 48.5421 38.011C49.0048 37.6461 49.3386 37.2183 49.5369 36.7242Z" fill="#FFC5DE"/>
<path d="M62.4859 26.8946L60.9524 27.6208L62.671 31.2822L60.5591 32.2804L58.8405 28.6191L57.307 29.3454L56.808 34.0514L54.2863 35.2419L55.0531 29.1132L50.2212 26.0058L52.4884 24.9346L56.4378 27.5811L58.0044 26.8415L56.2693 23.147L58.3812 22.1488L60.1163 25.8433L61.6663 25.1103L62.1653 20.3612L64.4326 19.29L63.7418 25.0075L68.9571 28.3107L66.4188 29.5112L62.4859 26.8946Z" fill="#FFC5DE"/>
<path d="M68.4014 18.2852L70.7049 17.7877L72.0963 24.2945L76.1383 16.617L78.2369 16.166L80.3488 26.0356L78.0453 26.5331L76.6539 20.0263L72.6317 27.6972L70.5132 28.1548L68.4014 18.2852Z" fill="#FFC5DE"/>
<path d="M83.2046 15.622L85.561 15.5955L85.6073 19.6979L90.6738 19.6382L90.6275 15.5358L92.9807 15.5093L93.0963 25.6044L90.7432 25.6309L90.6969 21.6413L85.6304 21.701L85.6767 25.6906L83.3203 25.7172L83.2046 15.622Z" fill="#FFC5DE"/>
<path d="M104.733 18.1658C105.384 19.0048 105.586 20.1291 105.338 21.5452L104.317 27.3721L102.125 26.9874L102.337 25.7769C101.977 26.1616 101.514 26.4236 100.949 26.5596C100.384 26.6956 99.7294 26.6989 98.9858 26.5696C98.2421 26.4402 97.6175 26.1981 97.1052 25.8433C96.593 25.4917 96.2261 25.0606 96.0014 24.5532C95.7766 24.0458 95.7171 23.5085 95.8163 22.9381C95.9716 22.0427 96.4277 21.386 97.1846 20.9615C97.9414 20.537 99.0287 20.4508 100.453 20.7028L103.015 21.1539L103.041 21.0046C103.163 20.3082 103.048 19.7378 102.701 19.2934C102.35 18.849 101.769 18.5538 100.952 18.4079C100.397 18.3117 99.8318 18.3018 99.2634 18.378C98.6949 18.4576 98.1992 18.6201 97.7728 18.8655L97.1614 17.0117C97.7497 16.7066 98.4272 16.5109 99.194 16.4313C99.9607 16.3484 100.754 16.3782 101.567 16.5242C103.028 16.7828 104.082 17.33 104.733 18.1658ZM101.385 24.8318C101.884 24.6427 102.268 24.3177 102.542 23.8534L102.744 22.6993L100.351 22.2781C99.0155 22.0427 98.2686 22.3643 98.1166 23.2465C98.0438 23.6677 98.1496 24.0325 98.4404 24.3409C98.7313 24.6494 99.1742 24.855 99.7657 24.9578C100.347 25.0606 100.889 25.0175 101.385 24.8318Z" fill="#FFC5DE"/>
<path d="M119.07 21.797L115.57 31.262L113.363 30.4395L116.165 22.8549L112.632 21.5416L111.849 23.3888C111.327 24.6192 110.825 25.6241 110.342 26.4068C109.859 27.1894 109.324 27.7499 108.736 28.0882C108.147 28.4264 107.5 28.4662 106.796 28.2009C106.465 28.0782 106.085 27.8627 105.649 27.5509L106.442 25.7302C106.594 25.8264 106.73 25.896 106.845 25.9425C107.291 26.1083 107.695 26.0552 108.052 25.7766C108.409 25.5014 108.713 25.1233 108.964 24.6424C109.215 24.1615 109.536 23.4684 109.929 22.5531L111.436 18.9614L119.07 21.797Z" fill="#FFC5DE"/>
<path d="M128.172 31.6634C128.466 32.5124 128.341 33.3912 127.802 34.3032C127.237 35.255 126.477 35.7989 125.521 35.9316C124.566 36.0642 123.502 35.7757 122.332 35.0627L118.293 32.6318L123.436 23.9561L125.459 25.1632L123.773 28.0054L126.08 29.4049C127.184 30.0616 127.881 30.8144 128.172 31.6634ZM124.622 33.8986C125.088 33.8257 125.472 33.5405 125.766 33.043C126.057 32.5555 126.116 32.1078 125.948 31.6999C125.779 31.2919 125.393 30.9006 124.784 30.5225L122.95 29.4049L121.205 32.3466L123.039 33.4642C123.628 33.8257 124.156 33.9716 124.622 33.8986Z" fill="#FFC5DE"/>
<path d="M139.183 27.3363C139.395 28.0427 139.415 28.7557 139.24 29.4721C139.064 30.1884 138.711 30.8318 138.175 31.3956C137.64 31.9627 137.015 32.3507 136.298 32.563C135.584 32.7752 134.864 32.7951 134.14 32.6227C133.416 32.4502 132.775 32.0954 132.21 31.5581C131.645 31.0208 131.261 30.3974 131.056 29.6843C130.848 28.9713 130.835 28.255 131.01 27.532C131.185 26.809 131.539 26.1689 132.068 25.6085C132.597 25.048 133.218 24.6633 133.928 24.451C134.639 24.2388 135.353 24.2189 136.077 24.3914C136.8 24.5638 137.445 24.922 138.017 25.4625C138.582 26.0064 138.972 26.6299 139.183 27.3363ZM134.315 31.8599C134.903 31.9959 135.485 31.976 136.063 31.7969C136.642 31.6178 137.151 31.2994 137.587 30.8351C138.03 30.3675 138.324 29.8468 138.469 29.2698C138.615 28.696 138.602 28.1223 138.433 27.5486C138.265 26.9748 137.947 26.4674 137.481 26.023C137.015 25.5786 136.493 25.2901 135.911 25.1508C135.33 25.0148 134.751 25.0347 134.18 25.2138C133.608 25.3929 133.102 25.7113 132.666 26.1723C132.23 26.6332 131.936 27.1572 131.79 27.7409C131.641 28.3246 131.651 28.9017 131.813 29.4754C131.975 30.0491 132.289 30.5532 132.749 30.991C133.208 31.4288 133.727 31.7239 134.315 31.8599ZM136.414 30.0226C136.139 30.0989 135.855 30.0856 135.555 29.9861L135.224 31.8101L134.328 30.9545L134.616 29.3859L134.583 29.3527L134.021 28.8188L133.102 29.7871L132.203 28.9315L135.383 25.572L136.84 26.9616C137.293 27.3927 137.547 27.8437 137.604 28.3047C137.66 28.7657 137.511 29.1802 137.167 29.545C136.939 29.7905 136.688 29.9463 136.414 30.0226ZM135.158 28.6198C135.36 28.8121 135.558 28.9149 135.756 28.9348C135.954 28.9547 136.13 28.8784 136.288 28.7093C136.447 28.5435 136.513 28.3578 136.49 28.1588C136.463 27.9598 136.351 27.7641 136.149 27.5718L135.64 27.0876L134.649 28.1356L135.158 28.6198Z" fill="#FFC5DE"/>
</g>
<defs>
<clipPath id="clip0">
<rect width="179" height="179" fill="white"/>
</clipPath>
</defs>
</svg>
